<?xml version="1.0" encoding="iso-8859-1"?>
<svg version="1.1" id=" " xmlns="http://www.w3.org/2000/svg" xmlns:xlink="http://www.w3.org/1999/xlink" x="0px" y="0px"
	 viewBox="0 0 512 512" style="enable-background:new 0 0 512 512;" xml:space="preserve">
<path style="fill:#85DD98;" d="M161.991,182.056c-83.943,0-151.992,57.308-151.992,128c0,24.597,8.246,47.57,22.525,67.076
	l-0.508-0.334v63.208l64.969-14.223c19.71,7.866,41.745,12.272,65.005,12.272c61.963,0,115.258-31.23,138.924-76.016
	L161.991,182.056z"/>
<path style="fill:#FFFFFF;" d="M502,217.993c0-80.634-77.003-146-171.991-146s-171.991,65.366-171.991,146s77.003,146,171.991,146
	c20.646,0,40.44-3.091,58.781-8.753l67.204,19.79v-57.661C484.535,291.307,502,256.384,502,217.993z"/>
<path style="fill:#FC5271;" d="M355.254,166.774c-9.944,0-18.911,4.337-25.245,11.287c-6.334-6.95-15.302-11.287-25.245-11.287
	c-19.193,0-34.752,16.154-34.752,36.081c0,33.591,59.997,66.358,59.997,66.358s59.997-32.768,59.997-66.358
	C390.006,182.928,374.447,166.774,355.254,166.774z"/>
<path d="M355.254,156.774c-9.042,0-17.86,2.861-25.245,8.043c-7.384-5.183-16.202-8.043-25.245-8.043
	c-24.676,0-44.751,20.672-44.751,46.081c0,38.414,58.529,71.489,65.203,75.134c1.493,0.816,3.143,1.224,4.793,1.224
	c1.649,0,3.3-0.408,4.793-1.224c6.674-3.645,65.204-36.72,65.204-75.134C400.006,177.446,379.931,156.774,355.254,156.774z
	 M330.003,257.662c-16.878-10.21-49.99-34.412-49.99-54.807c0-14.381,11.104-26.081,24.751-26.081
	c6.799,0,13.139,2.849,17.854,8.023c1.896,2.079,4.578,3.264,7.392,3.264c2.813,0,5.496-1.185,7.391-3.264
	c4.716-5.174,11.057-8.023,17.854-8.023c13.648,0,24.752,11.7,24.752,26.081C380.006,223.194,346.876,247.435,330.003,257.662z"/>
<path d="M458.097,107.132c-34.29-29.108-79.779-45.139-128.088-45.139s-93.797,16.031-128.087,45.139
	c-21.699,18.42-37.311,40.685-45.981,65.028c-40.689,1.265-78.795,15.255-107.866,39.737C17.073,238.006,0,272.866,0,310.056
	c0,24.542,7.6,48.498,22.018,69.54v60.41c0,3.028,1.372,5.893,3.73,7.791c1.793,1.443,4.01,2.209,6.27,2.209
	c0.713,0,1.43-0.076,2.139-0.231l62.02-13.577c20.756,7.87,42.881,11.858,65.815,11.858c61.044,0,116.872-29.377,144.377-75.368
	c7.779,0.859,15.67,1.305,23.641,1.305c20.149,0,39.918-2.798,58.81-8.32l64.351,18.95c0.929,0.273,1.879,0.407,2.824,0.407
	c2.135,0,4.241-0.684,5.99-1.992c2.524-1.888,4.011-4.855,4.011-8.008v-53.33C495.697,293.111,512,256.447,512,217.993
	C512,176.011,492.856,136.639,458.097,107.132z M161.991,428.056c-21.454,0-42.078-3.889-61.298-11.56
	c-1.858-0.741-3.896-0.909-5.846-0.481l-52.83,11.565v-47.3c0.991-2.992,0.54-6.375-1.424-9.056
	C27.121,352.822,20,331.671,20,310.056c0-61.833,57.527-112.705,130.438-117.608c-1.594,8.363-2.419,16.897-2.419,25.545
	c0,41.983,19.144,81.354,53.903,110.861c23.338,19.811,51.867,33.557,82.938,40.322
	C259.638,405.327,212.975,428.056,161.991,428.056z M449.251,309.985c-2.075,1.895-3.257,4.575-3.257,7.384v44.292l-54.379-16.014
	c-0.923-0.271-1.874-0.407-2.825-0.407c-0.994,0-1.989,0.148-2.949,0.445c-17.859,5.513-36.644,8.308-55.832,8.308
	c-89.321,0-161.99-61.009-161.99-136s72.669-136,161.99-136c89.322,0,161.991,61.009,161.991,136
	C492,252.142,476.818,284.813,449.251,309.985z"/>
<path d="M188.033,328.007h-0.113c-5.522,0-10,4.477-10,10s4.478,10,10,10h0.113c5.522,0,10-4.477,10-10
	S193.556,328.007,188.033,328.007z"/>
<path d="M157.332,328.007H64.016c-5.522,0-10,4.477-10,10s4.478,10,10,10h93.316c5.522,0,10-4.477,10-10
	S162.854,328.007,157.332,328.007z"/>
<path d="M64.016,308.007H110.2c5.522,0,10-4.477,10-10s-4.478-10-10-10H64.016c-5.522,0-10,4.477-10,10
	S58.493,308.007,64.016,308.007z"/>
<path d="M141.986,308.007h0.114c5.522,0,10-4.477,10-10s-4.478-10-10-10h-0.114c-5.522,0-10,4.477-10,10
	S136.464,308.007,141.986,308.007z"/>
<g>
</g>
<g>
</g>
<g>
</g>
<g>
</g>
<g>
</g>
<g>
</g>
<g>
</g>
<g>
</g>
<g>
</g>
<g>
</g>
<g>
</g>
<g>
</g>
<g>
</g>
<g>
</g>
<g>
</g>
</svg>
