<?xml version="1.0" encoding="UTF-8"?>
<svg width="552px" height="289px" viewBox="0 0 552 289" version="1.1" xmlns="http://www.w3.org/2000/svg" xmlns:xlink="http://www.w3.org/1999/xlink">
    <title>PaperDate - Enjoy Classy Dates</title>
    <desc>PaperDate - Enjoy Classy Dates.</desc>
    <defs>
        <linearGradient x1="49.5406709%" y1="102.271241%" x2="50.0728921%" y2="41.7091516%" id="ClassyDatelinearGradient-1">
            <stop stop-color="#3A8CFA" offset="0%"></stop>
            <stop stop-color="#4C97FA" offset="12.81%"></stop>
            <stop stop-color="#7BB2FC" offset="38.53%"></stop>
            <stop stop-color="#C6DEFE" offset="74.41%"></stop>
            <stop stop-color="#FFFFFF" offset="100%"></stop>
        </linearGradient>
        <linearGradient x1="0.000402661593%" y1="50.0022522%" x2="100.000302%" y2="50.0022522%" id="ClassyDatelinearGradient-2">
            <stop stop-color="#FFFFFF" offset="0%"></stop>
            <stop stop-color="#F04B52" offset="100%"></stop>
        </linearGradient>
        <linearGradient x1="49.0196784%" y1="49.4028087%" x2="40.1177397%" y2="44.2734171%" id="ClassyDatelinearGradient-3">
            <stop stop-color="#000000" offset="0%"></stop>
            <stop stop-color="#070707" stop-opacity="0.9134" offset="8.66%"></stop>
            <stop stop-color="#1C1C1C" stop-opacity="0.7828" offset="21.72%"></stop>
            <stop stop-color="#3E3E3E" stop-opacity="0.6245" offset="37.55%"></stop>
            <stop stop-color="#6D6D6D" stop-opacity="0.4443" offset="55.57%"></stop>
            <stop stop-color="#AAAAAA" stop-opacity="0.2458" offset="75.42%"></stop>
            <stop stop-color="#F2F2F2" stop-opacity="0.0349" offset="96.51%"></stop>
            <stop stop-color="#FFFFFF" stop-opacity="0" offset="100%"></stop>
        </linearGradient>
        <linearGradient x1="0.000149314646%" y1="50.0012927%" x2="100.0001%" y2="50.0012927%" id="ClassyDatelinearGradient-4">
            <stop stop-color="#FFFFFF" offset="0%"></stop>
            <stop stop-color="#F04B52" offset="100%"></stop>
        </linearGradient>
        <linearGradient x1="0.0013771594%" y1="50.0016933%" x2="100.001328%" y2="50.0016933%" id="ClassyDatelinearGradient-5">
            <stop stop-color="#3588FF" stop-opacity="0.8" offset="0%"></stop>
            <stop stop-color="#3588FF" offset="100%"></stop>
        </linearGradient>
        <linearGradient x1="0.000825813262%" y1="49.9997033%" x2="99.999961%" y2="49.9997033%" id="ClassyDatelinearGradient-6">
            <stop stop-color="#EFD1BB" offset="0.77%"></stop>
            <stop stop-color="#DBBAA6" offset="100%"></stop>
        </linearGradient>
        <linearGradient x1="0.00105472421%" y1="50.0000874%" x2="100.001516%" y2="50.0000874%" id="ClassyDatelinearGradient-7">
            <stop stop-color="#3A8CFA" offset="0%"></stop>
            <stop stop-color="#FFFFFF" offset="100%"></stop>
        </linearGradient>
        <linearGradient x1="-0.00278567051%" y1="50.0017103%" x2="99.9927573%" y2="50.0017103%" id="ClassyDatelinearGradient-8">
            <stop stop-color="#3588FF" stop-opacity="0.8" offset="0%"></stop>
            <stop stop-color="#3588FF" offset="100%"></stop>
        </linearGradient>
        <linearGradient x1="0.00258574548%" y1="50.0018623%" x2="100.001896%" y2="50.0018623%" id="ClassyDatelinearGradient-9">
            <stop stop-color="#3588FF" stop-opacity="0.8" offset="0%"></stop>
            <stop stop-color="#3588FF" offset="100%"></stop>
        </linearGradient>
        <linearGradient x1="-0.00050530571%" y1="50.0079156%" x2="100%" y2="50.0079156%" id="ClassyDatelinearGradient-10">
            <stop stop-color="#FFBD95" offset="0.77%"></stop>
            <stop stop-color="#FF9E6D" offset="88.19%"></stop>
            <stop stop-color="#FF9A67" offset="100%"></stop>
        </linearGradient>
        <linearGradient x1="0.000630726177%" y1="49.9995012%" x2="99.9991125%" y2="49.9995012%" id="ClassyDatelinearGradient-11">
            <stop stop-color="#FF9A6A" offset="0%"></stop>
            <stop stop-color="#F17954" offset="99.23%"></stop>
        </linearGradient>
        <linearGradient x1="-0.00105121999%" y1="50.0004844%" x2="100.000456%" y2="50.0004844%" id="ClassyDatelinearGradient-12">
            <stop stop-color="#FFBD95" offset="0.77%"></stop>
            <stop stop-color="#FF9A6A" offset="55.94%"></stop>
            <stop stop-color="#F17954" offset="99.23%"></stop>
        </linearGradient>
        <linearGradient x1="0.000669462722%" y1="50.0004815%" x2="99.9994245%" y2="50.0004815%" id="ClassyDatelinearGradient-13">
            <stop stop-color="#F17954" offset="0.77%"></stop>
            <stop stop-color="#FF9A6A" offset="100%"></stop>
        </linearGradient>
        <linearGradient x1="0.000103201047%" y1="50.0002507%" x2="100.000217%" y2="50.0002507%" id="ClassyDatelinearGradient-14">
            <stop stop-color="#FF9A6A" offset="0%"></stop>
            <stop stop-color="#F17954" offset="99.23%"></stop>
        </linearGradient>
        <linearGradient x1="-0.000881955197%" y1="50.0007179%" x2="99.9987261%" y2="50.0007179%" id="ClassyDatelinearGradient-15">
            <stop stop-color="#FFBD95" offset="0.77%"></stop>
            <stop stop-color="#FFBA92" offset="20.67%"></stop>
            <stop stop-color="#FFB287" offset="37.26%"></stop>
            <stop stop-color="#FFA476" offset="52.61%"></stop>
            <stop stop-color="#FF9A6A" offset="60.54%"></stop>
            <stop stop-color="#F17954" offset="99.23%"></stop>
        </linearGradient>
        <linearGradient x1="0.000410677618%" y1="50.0011037%" x2="99.998768%" y2="50.0011037%" id="ClassyDatelinearGradient-16">
            <stop stop-color="#FFBD95" offset="0.77%"></stop>
            <stop stop-color="#FF9E6D" offset="88.19%"></stop>
            <stop stop-color="#FF9A67" offset="100%"></stop>
        </linearGradient>
        <linearGradient x1="60.4284119%" y1="68.7790346%" x2="49.1974035%" y2="51.0620197%" id="ClassyDatelinearGradient-17">
            <stop stop-color="#FFCAB0" offset="0%"></stop>
            <stop stop-color="#FFE0D0" offset="27.27%"></stop>
            <stop stop-color="#FFF1EA" offset="55%"></stop>
            <stop stop-color="#FFFBFA" offset="80.09%"></stop>
            <stop stop-color="#FFFFFF" offset="100%"></stop>
        </linearGradient>
        <linearGradient x1="47.9361986%" y1="35.3272713%" x2="50.0146862%" y2="59.2731419%" id="ClassyDatelinearGradient-18">
            <stop stop-color="#FFCAB0" offset="0%"></stop>
            <stop stop-color="#FFE0D0" offset="27.27%"></stop>
            <stop stop-color="#FFF1EA" offset="55%"></stop>
            <stop stop-color="#FFFBFA" offset="80.09%"></stop>
            <stop stop-color="#FFFFFF" offset="100%"></stop>
        </linearGradient>
        <linearGradient x1="46.8984756%" y1="96.8057955%" x2="71.7491477%" y2="8.18604123%" id="ClassyDatelinearGradient-19">
            <stop stop-color="#FFFFFF" offset="0%"></stop>
            <stop stop-color="#FFFBFA" offset="19.91%"></stop>
            <stop stop-color="#FFF1EA" offset="45%"></stop>
            <stop stop-color="#FFE0D0" offset="72.73%"></stop>
            <stop stop-color="#FFCAB0" offset="100%"></stop>
        </linearGradient>
    </defs>
    <g id="Page-1" stroke="none" stroke-width="1" fill="none" fill-rule="evenodd">
        <g id="sugar-baby-table" fill-rule="nonzero">
            <rect id="Rectangle" fill="url(#ClassyDatelinearGradient-1)" x="0" y="0.36" width="551.5" height="220.593"></rect>
            <g id="Group" transform="translate(353.000000, 74.000000)">
                <path d="M105.038,105.281 C105.038,105.281 92.77,96.506 72.873,92.458 L71.826,96.506 C71.826,96.506 88.133,98.024 104.739,109.498 L105.038,105.281 Z" id="Path" fill="#DEDAC8"></path>
                <path d="M8.245,114.729 L8.694,157.921 C8.694,157.921 8.394,168.55 7.947,170.405 L4.803,195.039 L2.411,194.702 L4.803,167.369 L5.254,149.484 L4.206,112.365 L8.245,114.729 Z" id="Path" fill="#DEDAC8"></path>
                <path d="M105.936,81.322 C105.936,81.322 93.669,72.549 73.772,68.498 L72.724,72.548 C72.724,72.548 89.031,74.067 105.638,85.541 L105.936,81.322 Z" id="Path" fill="#DEDAC8"></path>
                <path d="M116.109,213.43 L114.164,213.262 L107.282,154.378 L105.186,121.14 L105.637,89.42 L109.076,60.738 L115.958,32.73 L122.69,10.458 L125.383,10.626 L120.147,28.681 L114.312,51.795 L111.171,66.643 C111.171,66.643 108.027,86.553 107.73,91.446 C107.431,96.339 107.131,112.705 107.281,117.428 C107.431,122.153 110.124,152.523 110.273,155.053 C110.422,157.585 114.761,201.115 114.761,201.115 L116.109,213.43 Z" id="Path" fill="#DEDAC8"></path>
                <path d="M84.543,6.915 C84.543,6.915 78.708,23.619 76.016,103.424 L73.173,103.932 C73.173,103.932 72.873,66.474 74.071,51.458 C75.267,36.441 82.299,4.89 82.299,4.89 L84.543,6.915 Z" id="Path" fill="#DEDAC8"></path>
                <path d="M80.355,0.335 C80.355,0.335 68.684,58.713 70.48,100.893 L73.172,185.255 L77.061,185.592 C77.061,185.592 76.462,143.748 75.866,138.35 C75.267,132.952 69.283,83.346 83.345,7.76 L118.652,16.195 C118.652,16.195 106.086,64.788 105.186,77.948 C105.186,77.948 103.243,115.067 103.243,117.428 C103.243,117.428 110.723,202.632 110.872,210.563 L114.164,213.262 C114.164,213.262 109.276,162.984 108.777,159.385 C108.777,159.385 106.184,121.14 106.086,116.415 C105.986,111.691 106.982,85.936 107.781,77.836 C108.579,69.737 114.164,43.076 123.438,10.458 C123.438,10.458 107.48,7.648 102.992,6.072 C98.505,4.499 80.355,0.335 80.355,0.335 Z" id="Path" fill="#3A8CFA"></path>
                <polygon id="Path" fill="#3A8CFA" points="79.606 23.619 114.464 34.755 113.565 39.479 78.259 28.343"></polygon>
                <polygon id="Path" fill="#3A8CFA" points="76.313 45.721 109.077 57.363 108.33 62.257 75.566 50.782"></polygon>
                <path d="M74.071,69.511 C74.071,69.511 100.251,76.936 105.186,82.166 L105.336,86.89 C105.336,86.89 79.006,72.549 73.62,73.898 L74.071,69.511 Z" id="Path" fill="#3A8CFA"></path>
                <path d="M73.173,93.47 C73.173,93.47 99.354,100.893 104.29,106.125 L104.439,110.848 C104.439,110.848 78.11,96.506 72.723,97.856 L73.173,93.47 Z" id="Path" fill="#3A8CFA"></path>
                <path d="M91.424,8.434 C91.424,8.434 92.472,23.281 105.786,22.607 C105.786,22.607 112.818,21.764 116.633,15.606 L119.102,16.28 C119.102,16.28 111.696,30.538 97.933,29.694 C97.933,29.694 91.201,27.162 88.059,21.257 C84.917,15.35 83.122,11.302 84.095,6.832 C85.066,2.36 91.424,8.434 91.424,8.434 Z" id="Path" fill="#3A8CFA"></path>
                <polygon id="Path" fill="#3A8CFA" points="39.063 144.424 4.057 121.308 4.954 112.197 39.587 133.092"></polygon>
                <polygon id="Path" fill="#DEDAC8" points="76.764 138.182 78.708 186.099 75.866 185.086 74.22 138.687"></polygon>
                <path d="M43.751,134.073 L44.2,177.266 C44.2,177.266 43.9,187.895 43.451,189.752 L40.309,214.385 L37.915,214.046 L40.309,186.714 L40.758,168.829 L39.71,131.71 L43.751,134.073 Z" id="Path" fill="#DEDAC8"></path>
                <polygon id="Path" fill="#3A8CFA" points="41.083 144.9 106.982 136.493 105.187 127.045 40.71 133.625"></polygon>
                <path d="M40.858,147.629 C40.858,147.629 71.677,144.424 74.219,145.436 C74.219,145.436 89.778,144.424 108.777,170.914 L108.18,165.683 C108.18,165.683 95.911,152.692 91.874,149.824 C87.833,146.957 78.856,143.075 74.368,143.075 C69.881,143.075 40.857,144.595 40.857,144.595 L40.857,147.629 L40.858,147.629 Z" id="Path" fill="#3A8CFA"></path>
                <path d="M38.813,131.711 C38.813,131.711 39.862,179.459 39.262,185.027 C38.662,190.595 35.67,212.529 35.67,212.529 L38.514,214.554 C38.514,214.554 42.253,189.752 42.104,185.027 C41.955,180.303 41.655,133.566 41.655,133.566 L38.813,131.711 Z" id="Path" fill="#3A8CFA"></path>
                <path d="M3.308,112.366 C3.308,112.366 4.356,160.114 3.757,165.681 C3.159,171.25 0.166,193.183 0.166,193.183 L3.009,195.208 C3.009,195.208 6.749,170.405 6.6,165.681 C6.451,160.957 6.152,114.222 6.152,114.222 L3.308,112.366 Z" id="Path" fill="#31948F"></path>
                <path d="M3.159,113.885 C3.159,113.885 -1.478,110.679 2.412,107.473 C2.412,107.473 7.198,101.737 25.001,99.713 C25.001,99.713 55.07,99.375 62.7,100.219 C62.7,100.219 72.574,100.557 79.756,104.1 C79.756,104.1 91.724,108.487 96.66,112.535 C96.66,112.535 103.243,117.936 103.841,118.948 C103.841,118.948 109.229,129.408 103.392,130.084 C103.392,130.084 41.607,138.519 38.616,135.988 L3.159,113.885 Z" id="Path" fill="#D8EAFE"></path>
            </g>
            <g id="Group" transform="translate(168.000000, 116.000000)">
                <path d="M153.327,151.12 C153.327,160.748 131.136,168.555 103.76,168.555 C76.383,168.555 54.063,160.748 54.1904522,151.12 C54.293,143.687 56.387,142.225 56.387,142.225 C56.387,142.225 65.571,128.851 103.96,129.739 C142.757,130.639 151.57,141.462 152.181,142.206 C153.479,143.779 153.327,142.145 153.327,151.12 Z" id="Path" fill="#3A8CFA"></path>
                <path d="M153.529,146.388 C153.529,156.016 131.135,164.504 103.759,164.504 C76.382,164.504 54.19,156.7 54.19,147.071 C54.19,137.44 74.633,129.183 103.759,129.633 C132.384,130.077 153.529,136.758 153.529,146.388 Z" id="Path" fill="url(#ClassyDatelinearGradient-2)"></path>
                <path d="M79.724,32.219 L80.124,21.197 C80.124,21.197 112.638,28.621 120.615,55.617 C120.615,55.617 121.414,65.288 119.62,66.639 C119.62,66.639 119.817,47.515 79.724,32.219 Z" id="Path" fill="#D8EAFE"></path>
                <path d="M80.124,21.871 L85.11,17.372 C85.11,17.372 112.237,26.371 125.801,42.794 C125.801,42.794 136.572,55.391 129.59,72.712 L69.352,143.351 L68.752,140.875 C68.752,140.875 100.469,101.731 103.857,97.009 C103.857,97.009 122.809,71.815 117.224,52.015 C117.226,52.015 113.235,35.595 80.124,21.871 Z" id="Path" fill="#9E9C8E"></path>
                <path d="M85.11,17.372 C85.11,17.372 139.165,35.594 130.19,67.313 C130.19,67.313 117.825,89.584 104.259,102.408 L67.557,142.9 L73.34,147.625 C73.34,147.625 99.304,117.926 108.848,109.157 C117.765,100.963 129.59,91.161 132.783,64.841 C132.783,64.841 138.768,44.82 109.047,28.171 L85.11,17.372 Z" id="Path" fill="#D8EAFE"></path>
                <path d="M125.402,34.467 C125.402,34.467 97.277,45.265 92.092,47.29 C86.904,49.314 77.928,54.264 77.131,58.541 C76.331,62.812 75.935,68.888 75.935,68.888 L94.284,58.764 L114.63,49.542 C114.63,49.542 140.961,35.82 141.96,31.996 L125.402,34.467 Z" id="Path" fill="#8F8977"></path>
                <path d="M140.763,146.059 L133.781,153.482 C133.781,153.482 117.027,106.013 108.849,99.265 C108.849,99.265 119.418,99.715 133.781,128.512 C133.78,128.512 140.362,144.033 140.763,146.059 Z" id="Path" fill="#D8EAFE"></path>
                <path d="M91.892,64.395 C91.892,64.395 89.299,66.196 94.086,73.167 C98.872,80.145 115.431,104.439 119.62,110.286 C119.62,110.286 126.002,121.087 127.996,128.285 C127.996,128.285 133.182,147.856 133.78,153.481 L126.801,150.784 C126.801,150.784 124.007,125.137 113.434,112.988 C113.434,112.988 94.486,85.766 90.896,81.269 C90.896,81.27 82.517,70.692 91.892,64.395 Z" id="Path" fill="#8F8977"></path>
                <path d="M143.556,31.996 C143.556,31.996 122.411,47.066 104.458,51.115 C104.458,51.115 75.735,61.013 75.936,68.887 C75.936,68.887 76.134,74.284 87.105,83.51 C87.105,83.51 97.478,91.384 100.668,95.434 C100.668,95.434 88.701,79.459 88.899,72.936 C88.899,72.936 88.501,68.439 94.485,63.714 C94.485,63.714 118.022,48.191 120.816,47.289 C120.816,47.29 142.158,33.12 143.556,31.996 Z" id="Path" fill="#D8EAFE"></path>
                <path d="M117.878,55.082 C120.912,74.32 103.858,97.009 103.858,97.009 C100.469,101.732 68.753,140.875 68.753,140.875 L69.353,143.351 L129.591,72.712 C132.291,66.015 132.331,60.031 131.373,55.201 C126.999,56.631 122.289,56.679 117.878,55.082 Z" id="Path" fill="#9E9C8E"></path>
                <path d="M130.701,55.426 C131.453,59.146 131.38,63.109 130.19,67.313 C130.19,67.313 117.825,89.584 104.259,102.408 L67.557,142.9 L73.34,147.625 C73.34,147.625 99.304,117.926 108.848,109.157 C117.765,100.963 129.59,91.161 132.783,64.841 C132.783,64.841 133.99,60.769 132.605,54.778 C131.979,55.023 131.342,55.238 130.701,55.426 Z" id="Path" fill="#D8EAFE"></path>
                <g fill="#31948F" id="Path">
                    <path d="M103.212,34.525 C40.43,34.243 5.072,25.626 5.072,17.147 C5.072,8.666 49.405,0.726 103.136,0.442 C46.333,0.442 0.285,8.665 0.285,17.147 C0.285,25.626 26.278,34.455 103.461,36.267 C170.483,37.845 205.989,27.047 205.989,17.147 C205.989,25.625 160.014,34.779 103.212,34.525 Z"></path>
                    <path d="M205.99,17.147 C205.99,8.666 169.636,0.094 103.136,0.442 C169.636,0.442 205.99,8.666 205.99,17.147 Z"></path>
                </g>
                <g id="Path">
                    <path d="M103.212,34.525 C40.43,34.243 5.072,25.626 5.072,17.147 C5.072,8.666 49.405,0.726 103.136,0.442 C46.333,0.442 0.285,8.665 0.285,17.147 C0.285,25.626 26.278,34.455 103.461,36.267 C170.483,37.845 205.989,27.047 205.989,17.147 C205.989,25.625 160.014,34.779 103.212,34.525 Z" fill="#3A8CFA"></path>
                    <path d="M205.99,17.147 C205.99,8.666 169.636,0.094 103.136,0.442 C169.636,0.442 205.99,8.666 205.99,17.147 Z" fill="url(#ClassyDatelinearGradient-3)"></path>
                </g>
                <path d="M205.99,17.147 C205.99,25.626 160.013,34.779 103.212,34.525 C40.43,34.243 5.072,25.626 5.072,17.147 C5.072,8.666 49.405,0.726 103.136,0.442 C169.636,0.094 205.99,8.666 205.99,17.147 Z" id="Path" fill="url(#ClassyDatelinearGradient-4)" opacity="0.5"></path>
            </g>
            <g id="Group" transform="translate(299.000000, 18.000000)">
                <path d="M19.835,109.078 L53.268,102.182 L54.253,100.213 L56.712,98.979 C56.712,98.979 72.964,61.802 76.41,58.357 C79.856,54.908 85.659,53.108 88.228,55.678 C90.797,58.248 93.645,63.772 91.921,69.188 C90.196,74.606 71.376,114.379 69.651,114.402 C67.922,114.425 19.834,113.825 19.834,113.825 L19.834,109.078 L19.835,109.078 Z" id="Path" fill="url(#ClassyDatelinearGradient-5)"></path>
                <path d="M88.065,45.368 C88.065,45.368 70.866,52.243 69.382,53.726 C67.901,55.207 64.894,67.959 66.862,79.285 C68.834,90.611 75.467,152.904 76.949,154.381 C78.429,155.864 113.027,154.013 115.12,151.922 C117.216,149.829 88.065,45.368 88.065,45.368 Z" id="Path" fill="#3A8CFA"></path>
                <path d="M54.94,250.504 C54.94,250.504 57.158,239.055 54.94,226.496 C52.726,213.938 43.861,170.725 43.861,165.187 C43.861,159.645 74.652,151.458 87.176,148.72 C106.599,144.473 122.159,144.502 126.96,149.305 C131.761,154.109 136.933,169.618 124.743,172.943 C112.555,176.267 72.67,177.744 71.189,179.22 C69.713,180.699 80.794,220.586 80.794,236.22 C80.794,245.956 79.684,258.628 79.684,258.628 C79.684,258.628 63.065,248.656 54.94,250.504 Z" id="Path" fill="#464656"></path>
                <path d="M82.492,257.89 L82.492,261.953 L32.999,261.953 C32.999,261.953 32.999,259.181 34.293,257.89 C35.587,256.596 57.747,249.765 57.747,249.765 L79.905,247.363 L82.492,257.89 Z" id="Path" fill="#583225"></path>
                <path d="M87.292,258.629 L87.292,262.689 L37.801,262.689 C37.801,262.689 37.801,259.92 39.095,258.629 C40.388,257.336 62.547,250.504 62.547,250.504 L84.706,248.1 L87.292,258.629 Z" id="Path" fill="#773C34"></path>
                <path d="M138.062,129.637 L98.373,136.009 C98.373,136.009 101.401,145.829 95.952,148.564 C95.348,148.676 94.757,148.789 94.195,148.906 C81.636,151.49 51.468,159.646 51.468,165.188 C51.468,170.725 60.329,213.939 62.547,226.497 C64.762,239.056 62.547,250.505 62.547,250.505 C70.674,248.657 87.292,258.63 87.292,258.63 C87.292,258.63 88.399,245.958 88.399,236.222 C88.399,220.588 77.32,180.701 78.798,179.222 C79.955,178.062 107.23,179.402 124.828,178.434 L124.829,178.434 C124.829,178.434 129.64,178.803 134.643,177.402 C135.282,177.279 135.888,177.151 136.414,177.007 C138,176.572 139.217,175.86 140.135,174.944 C142.498,173.34 144.429,171.027 145.253,167.68 C148.609,154.061 138.062,129.637 138.062,129.637 Z" id="Path" fill="#2F2E41"></path>
                <path d="M78.43,48.108 C86.18,44.554 95.672,48.272 102.804,57.339 C108.835,65.008 133.458,117.912 137.891,127.512 C142.324,137.117 98.372,136.009 98.372,136.009 C98.372,136.009 90.249,115.328 82.492,104.613 C74.736,93.904 72.035,80.955 70.556,72.829 C69.077,64.704 69.563,52.17 78.43,48.108 Z" id="Path" fill="url(#ClassyDatelinearGradient-6)"></path>
                <path d="M62.547,40.721 L71.341,56.762 L92.055,48.272 C92.055,48.272 83.5,42.421 80.144,32.965 C76.183,21.814 73.694,13.076 71.851,13.771 C68.392,15.07 62.547,40.721 62.547,40.721 Z" id="Path" fill="#D69680"></path>
                <path d="M88.065,45.368 C88.065,45.368 75.48,54.909 73.509,63.034 C71.541,71.159 88.775,155.367 90.745,155.367 C92.714,155.367 125.956,157.093 135.803,151.922 C145.654,146.75 145.91,145.614 145.91,145.614 C145.91,145.614 117.108,65.051 106.996,54.942 C96.887,44.829 88.065,45.368 88.065,45.368 Z" id="Path" fill="url(#ClassyDatelinearGradient-7)"></path>
                <path d="M73.354,72.075 C73.354,72.075 72.773,63.033 72.773,60.816 C72.773,58.602 77.935,49.084 78.497,49.084 C79.06,49.084 86.253,41.06 86.253,41.06 L90.722,45.607 C90.722,45.607 82.376,53.259 80.161,56.761 C77.943,60.264 76.098,76.142 76.098,76.142 L73.354,72.075 Z" id="Path" fill="url(#ClassyDatelinearGradient-8)"></path>
                <path d="M19.835,108.338 L57.998,101.443 L58.982,99.473 L61.444,98.243 C61.444,98.243 77.695,61.063 81.142,57.619 C84.588,54.169 90.391,52.371 92.96,54.942 C95.53,57.509 98.379,63.033 96.653,68.449 C94.931,73.869 76.109,113.641 74.382,113.664 C72.656,113.685 19.833,113.826 19.833,113.826 L19.833,108.338 L19.835,108.338 Z" id="Path" fill="url(#ClassyDatelinearGradient-9)"></path>
                <path d="M19.835,108.338 C19.835,108.338 14.662,106.246 13.679,106.246 C12.694,106.246 0.045,107.562 0.045,108.814 C0.045,110.064 6.539,109.323 9.941,108.585 C11.141,108.322 19.835,113.826 19.835,113.826 L19.835,108.338 Z" id="Path" fill="url(#ClassyDatelinearGradient-10)"></path>
                <path d="M63.145,101.1 C65.326,98.919 80.858,61.73 83.482,55.755 C83.031,56.046 82.597,56.36 82.181,56.694 L80.343,58.66 C75.704,65.618 61.445,98.243 61.445,98.243 L58.983,99.473 L57.999,101.443 L36.717,105.289 C36.727,105.29 60.771,103.477 63.145,101.1 Z" id="Path" fill="#FFFFFF"></path>
                <g transform="translate(49.000000, 0.000000)" id="Path">
                    <path d="M4.066,26.413 C4.046,26.364 4.046,26.341 4.044,26.316 C4.398,19.42 3.453,14.01 6.527,9.74 C6.859,9.486 8.916,8.628 9.807,8.144 C17.322,-0.05 36.822,9.955 35.795,17.257 C30.981,48.238 22.887,46.299 15.16,48.083 C11.955,48.308 9.814,48.16 7.962,46.272 C6.22,44.507 5.538,42.013 4.563,38.51 C2.746,37.679 0.678,37.261 0.692918878,36.045 C0.729,35.823 0.769,35.135 0.801,35.044 C2.274,33.244 3.274,27.852 4.066,26.413 Z" fill="#EFB29A"></path>
                    <g>
                        <path d="M40.693,9.212 C39.014,5.876 37.846,1.748 29.718,1.05 C21.925,0.321 15.699,1.887 10.05,6.884 C7.041,9.324 8.169,10.854 8.169,10.854 C8.169,10.854 13.371,8.757 15.26,9.4 C16.985,10.132 18.386,13.83 20.473,17.669 C22.409,20.879 22.179,28.168 22.179,28.168 C22.179,28.168 27.87,31.285 30.693,41.965 C31.266,44.496 41.634,41.482 41.634,41.482 C41.634,41.482 39.19,41.881 41.933,35.731 C43.039,33.408 41.542,32.911 43.475,29.13 C50.711,16.024 41.23,9.945 40.693,9.212 Z" fill="#A39E99"></path>
                        <path d="M17.396,16.573 C15.242,12.905 13.609,14.333 11.759,13.54 C9.867,12.884 4.471,15.859 4.471,15.859 C4.471,15.859 -2.337,15.19 1.358,11.061 C5.883,6.191 14.759,1.116 24.122,0.681 C27.355,0.565 30.575,0.5 32.715,1.577 C28.853,2.638 23.319,9.631 22.181,28.168 C20.239,26.755 18.603,25.535 18.603,25.535 C18.603,25.535 19.2,19.716 17.396,16.573 Z" fill="#939393"></path>
                        <path d="M23.015,27.042 C24.895,23.344 27.855,24.475 28.711,26.753 C29.602,28.904 26.33,34.447 24.868,34.698 C20.721,35.26 23.015,27.042 23.015,27.042 Z" fill="#EAC4B2"></path>
                    </g>
                </g>
            </g>
            <g id="Group" transform="translate(60.000000, 33.000000)">
                <g transform="translate(0.000000, 40.000000)" id="Path">
                    <path d="M20.513,104.948 C20.513,104.948 32.781,96.173 52.678,92.125 L53.725,96.173 C53.725,96.173 37.418,97.691 20.812,109.165 L20.513,104.948 Z" fill="#DEDAC8"></path>
                    <path d="M117.306,114.396 L116.857,157.588 C116.857,157.588 117.157,168.217 117.604,170.072 L120.748,194.706 L123.14,194.369 L120.748,167.036 L120.297,149.151 L121.345,112.032 L117.306,114.396 Z" fill="#DEDAC8"></path>
                    <path d="M19.615,80.989 C19.615,80.989 31.882,72.216 51.779,68.165 L52.827,72.215 C52.827,72.215 36.52,73.734 19.913,85.208 L19.615,80.989 Z" fill="#DEDAC8"></path>
                    <path d="M9.441,213.097 L11.386,212.929 L18.268,154.045 L20.364,120.807 L19.913,89.087 L16.474,60.405 L9.592,32.397 L2.86,10.125 L0.167,10.293 L5.403,28.348 L11.238,51.462 L14.379,66.31 C14.379,66.31 17.523,86.22 17.82,91.113 C18.119,96.006 18.419,112.372 18.269,117.095 C18.119,121.82 15.426,152.19 15.277,154.72 C15.128,157.252 10.789,200.782 10.789,200.782 L9.441,213.097 Z" fill="#DEDAC8"></path>
                    <path d="M41.008,6.582 C41.008,6.582 46.843,23.286 49.535,103.091 L52.378,103.599 C52.378,103.599 52.678,66.141 51.48,51.125 C50.284,36.108 43.252,4.557 43.252,4.557 L41.008,6.582 Z" fill="#DEDAC8"></path>
                    <path d="M45.195,0.002 C45.195,0.002 56.866,58.38 55.07,100.56 L52.378,184.922 L48.489,185.259 C48.489,185.259 49.088,143.415 49.684,138.017 C50.283,132.619 56.267,83.013 42.205,7.427 L6.898,15.862 C6.898,15.862 19.464,64.455 20.364,77.615 C20.364,77.615 22.307,114.734 22.307,117.095 C22.307,117.095 14.827,202.299 14.678,210.23 L11.386,212.929 C11.386,212.929 16.274,162.651 16.773,159.052 C16.773,159.052 19.366,120.807 19.464,116.082 C19.564,111.358 18.568,85.603 17.769,77.503 C16.971,69.404 11.386,42.743 2.112,10.125 C2.112,10.125 18.07,7.315 22.558,5.739 C27.046,4.166 45.195,0.002 45.195,0.002 Z" fill="#3A8CFA"></path>
                    <polygon fill="#3A8CFA" points="45.944 23.286 11.087 34.422 11.985 39.146 47.292 28.01"></polygon>
                    <polygon fill="#3A8CFA" points="49.237 45.388 16.474 57.03 17.221 61.924 49.984 50.449"></polygon>
                    <path d="M51.479,69.178 C51.479,69.178 25.299,76.603 20.364,81.833 L20.214,86.557 C20.214,86.557 46.544,72.216 51.93,73.565 L51.479,69.178 Z" fill="#3A8CFA"></path>
                    <path d="M52.378,93.137 C52.378,93.137 26.197,100.56 21.261,105.792 L21.112,110.515 C21.112,110.515 47.441,96.173 52.828,97.523 L52.378,93.137 Z" fill="#3A8CFA"></path>
                    <path d="M34.127,8.101 C34.127,8.101 33.079,22.948 19.765,22.274 C19.765,22.274 12.733,21.431 8.918,15.273 L6.449,15.947 C6.449,15.947 13.855,30.205 27.618,29.361 C27.618,29.361 34.35,26.829 37.492,20.924 C40.634,15.017 42.429,10.969 41.456,6.499 C40.484,2.027 34.127,8.101 34.127,8.101 Z" fill="#3A8CFA"></path>
                    <polygon fill="#3A8CFA" points="86.487 144.091 121.494 120.975 120.597 111.864 85.964 132.759"></polygon>
                    <polygon fill="#DEDAC8" points="48.787 137.849 46.843 185.766 49.685 184.753 51.331 138.354"></polygon>
                    <path d="M81.8,133.74 L81.351,176.933 C81.351,176.933 81.651,187.562 82.1,189.419 L85.242,214.052 L87.636,213.713 L85.242,186.381 L84.793,168.496 L85.841,131.377 L81.8,133.74 Z" fill="#DEDAC8"></path>
                    <polygon fill="#3A8CFA" points="84.468 144.567 18.568 136.16 20.364 126.712 84.841 133.292"></polygon>
                    <path d="M84.692,147.296 C84.692,147.296 53.873,144.091 51.331,145.103 C51.331,145.103 35.772,144.091 16.773,170.581 L17.37,165.35 C17.37,165.35 29.639,152.359 33.676,149.491 C37.717,146.624 46.694,142.742 51.182,142.742 C55.669,142.742 84.693,144.262 84.693,144.262 L84.693,147.296 L84.692,147.296 Z" fill="#3A8CFA"></path>
                    <path d="M86.737,131.378 C86.737,131.378 85.688,179.126 86.288,184.694 C86.888,190.262 89.88,212.196 89.88,212.196 L87.036,214.221 C87.036,214.221 83.297,189.419 83.446,184.694 C83.595,179.97 83.895,133.233 83.895,133.233 L86.737,131.378 Z" fill="#3A8CFA"></path>
                    <path d="M122.243,112.033 C122.243,112.033 121.195,159.781 121.794,165.348 C122.392,170.917 125.385,192.85 125.385,192.85 L122.542,194.875 C122.542,194.875 118.802,170.072 118.951,165.348 C119.1,160.624 119.399,113.889 119.399,113.889 L122.243,112.033 Z" fill="#3A8CFA"></path>
                    <path d="M122.392,113.552 C122.392,113.552 127.029,110.346 123.139,107.14 C123.139,107.14 118.353,101.404 100.55,99.38 C100.55,99.38 70.481,99.042 62.851,99.886 C62.851,99.886 52.977,100.224 45.795,103.767 C45.795,103.767 33.827,108.154 28.891,112.202 C28.891,112.202 22.308,117.603 21.71,118.615 C21.71,118.615 16.322,129.075 22.159,129.751 C22.159,129.751 83.944,138.186 86.935,135.655 L122.392,113.552 Z" fill="#D8EAFE"></path>
                </g>
                <path d="M140.803,147.092 C118.133,146.483 111.814,177.629 108.96,186.413 C105.778,196.218 102.814,214.063 101.45,222.943 L101.45,222.943 C101.45,222.943 97.611,230.464 97.611,232.782 C97.611,235.1 102.431,236.26 104.326,238.153 C106.215,240.044 109.081,246.207 110.792,246.207 C112.501,246.207 118.113,246.936 118.113,246.207 C118.113,245.474 113.475,240.836 112.62,238.886 C111.827,237.072 108.407,225.898 107.924,224.319 C112.28,215.755 120.664,199.422 126.289,189.332 C132.758,177.724 154.325,147.456 140.803,147.092 Z" id="Path" fill="url(#ClassyDatelinearGradient-11)"></path>
                <path d="M99.504,227.061 C99.504,227.061 102.983,228.757 104.934,231.806 C106.887,234.86 111.15,240.67 112.501,240.716 C113.85,240.76 113.85,240.76 113.85,240.76 C113.85,240.76 120.186,246.002 120.186,246.532 C120.186,247.059 110.82,247.212 109.57,246.532 C108.322,245.849 104.815,238.398 102.616,237.543 C100.421,236.689 100.666,246.532 100.666,246.532 L99.505,246.532 C99.505,246.532 97.1229997,235.59 97.1229997,233.148 C97.122,230.71 99.504,227.061 99.504,227.061 Z" id="Path" fill="#583225"></path>
                <path d="M133.502,148.032 C110.832,147.424 103.531,178.308 101.659,187.354 C99.232,199.074 98.199,214.509 95.094,222.942 C94.726,223.94 92.853,226.568 92.853,226.568 C92.853,226.568 90.311,231.407 90.311,233.724 C90.311,236.044 95.131,237.2 97.024,239.093 C98.913,240.983 101.784,247.149 103.49,247.149 C105.2,247.149 110.811,247.88 110.811,247.149 C110.811,246.416 106.174,241.778 105.321,239.827 C104.528,238.012 101.214,226.904 101.355,225.26 C102.191,215.687 113.365,200.365 118.987,190.272 C125.455,178.664 147.026,148.396 133.502,148.032 Z" id="Path" fill="url(#ClassyDatelinearGradient-12)"></path>
                <path d="M109.501,52.883 C113.522,51.201 140.221,89.437 140.803,88.854 C141.387,88.27 144.714,54.954 144.714,53.488 C144.714,52.026 138.367,47.976 138.367,47.061 C138.367,46.144 138.803,43.641 138.803,43.641 C138.803,43.641 137.669,42.864 136.328,43.297 C135.568,43.543 133.722,44.962 132.998,44.701 C132.223,44.42 134.132,42.6 135.262,41.471 C136.39,40.345 142.163,39.867 143.982,41.458 C147.642,44.651 149.858,51.279 150.345,53.488 C150.691,55.047 155.056,101.94 142.566,102.398 C133.586,102.728 100.098,56.815 109.501,52.883 Z" id="Path" fill="url(#ClassyDatelinearGradient-13)"></path>
                <path d="M132.358,11.979 C132.358,11.979 125.495,6.944 122.2,6.669 C118.906,6.396 110.349,8.819 107.924,11.246 C105.498,13.671 103.861,16.643 103.861,19.849 C103.861,23.053 107.191,28.179 105.543,30.831 C103.897,33.484 101.45,37.614 102.34,40.622 C103.233,43.63 117.533,52.246 119.364,56.457 C121.194,60.665 122.016,68.445 122.016,70.368 C122.016,72.287 124.808,84.599 126.134,85.926 C127.461,87.252 134.007,86.198 134.007,83.911 C134.007,81.624 133.548,80.891 133.548,80.891 C133.548,80.891 133.456,83.361 131.625,82.628 C129.795,81.895 133.364,77.505 134.556,74.669 C135.744,71.83 131.078,65.971 132.266,64.233 C133.456,62.497 137.391,58.744 136.751,53.435 C136.11,48.125 129.063,44.488 129.063,41.457 C129.064,38.427 132.358,11.979 132.358,11.979 Z" id="Path" fill="#2F2E41"></path>
                <path d="M114.811,45.688 C110.412,41.289 92.847,46.053 89.551,55.937 C86.257,65.823 79.67,85.954 73.444,95.842 C67.223,105.726 44.531,133.455 46.719,151.12 C48.448,165.045 58.069,166.129 61.365,166.129 C64.661,166.129 114.81,166.129 114.81,166.129 C114.81,166.129 118.472,155.877 125.793,151.85 C133.114,147.824 140.802,147.093 140.802,147.093 C140.802,147.093 96.501,129.884 93.573,126.957 C90.646,124.031 106.156,99.105 110.911,94.346 C115.673,89.586 124.835,86.035 124.835,82.374 C124.836,78.713 122.317,53.191 114.811,45.688 Z" id="Path" fill="#F04B52"></path>
                <path d="M180.469,97.333 C179.859,97.333 171.257,99.075 171.247,99.079 C159.456,97.704 136.82,94.775 134.33,92.284 C130.94,88.898 114.538,59.871 111.79,55.664 C109.046,51.451 104.361,48.537 100.858,50.496 C96.282,53.06 97.533,59.258 99.985,63.257 C102.669,67.639 122.317,100.963 128.722,102.611 C133.432,103.822 158.004,103.255 170.701,102.866 L170.701,102.866 C170.701,102.866 189.742,103.549 189.742,102.812 C189.742,102.078 181.076,97.333 180.469,97.333 Z" id="Path" fill="url(#ClassyDatelinearGradient-14)"></path>
                <path d="M101.133,45.692 C101.133,45.692 110.738,37.31 110.912,28.849 C111.092,20.384 123.089,24.819 123.089,24.819 C123.089,24.819 124.711,38.474 123.089,40.101 C121.465,41.724 117.896,46.773 119.151,51.268 C121.062,58.122 122.078,62.869 122.078,62.869 C119.974,62.835 114.318,54.143 109.814,49.871 C105.51,45.79 101.149,45.684 101.133,45.692 Z" id="Path" fill="url(#ClassyDatelinearGradient-15)"></path>
                <path d="M110.912,23.337 C110.912,33.346 119.07,41.458 125.794,41.458 C130.19,41.458 135.262,33.346 135.262,23.337 C135.262,13.33 129.812,5.215 123.089,5.215 C116.363,5.215 110.912,13.33 110.912,23.337 Z" id="Path" fill="url(#ClassyDatelinearGradient-16)"></path>
                <path d="M132.757,12.328 C132.757,12.328 132.451,6.853 130.805,4.566 C129.157,2.277 123.484,0.08 120.552,0.629 C117.623,1.179 112.826,4.07 111.951,2.825 C109.569,-0.561 101.426,8.683 102.146,12.802 C103.078,18.131 110.912,27.261 110.912,27.261 C110.912,27.261 120.917,17.926 124.67,15.363 C128.423,12.802 132.757,12.328 132.757,12.328 Z" id="Path" fill="#2F2E41"></path>
                <path d="M77.478,94.893 C82.603,87.084 92.733,59.628 95.783,56.578 C98.834,53.528 104.582,51.954 109.346,47.189 C114.111,42.424 110.504,31.763 110.504,31.763 L110.495,31.763 C108.64,39.135 101.134,45.693 101.134,45.693 L101.134,45.693 C96.009,47.63 91.136,51.191 89.552,55.937 C86.258,65.823 79.671,85.954 73.445,95.842 C69.163,102.645 57.076,117.909 50.671,132.525 C50.709,132.472 72.359,102.695 77.478,94.893 Z" id="Path" fill="#FFFFFF"></path>
                <path d="M102.496,37.042 C103.359,35.137 105.38,32.779 106.398,31.762 C107.763,30.398 108.413,29.946 108.413,28.205 C108.413,26.468 105.543,22.043 105.543,20.701 C105.543,19.36 107.69,15.578 106.713,14.601 C105.737,13.624 103.591,12.769 104.326,10.21 C105.05,7.668 111.217,2.39 111.331,2.295 C108.41,0.794 101.477,8.986 102.146,12.802 C102.396,14.235 103.156,15.947 104.119,17.681 C103.955,18.389 103.861,19.114 103.861,19.848 C103.861,23.052 107.191,28.178 105.543,30.83 C104.491,32.523 103.124,34.822 102.496,37.042 Z" id="Path" fill="#54545E"></path>
            </g>
            <g id="Group" transform="translate(250.000000, 99.000000)">
                <ellipse id="Oval" fill="#8F8977" cx="7.143" cy="34.975" rx="5.771" ry="1.001"></ellipse>
                <path d="M4.532,34.161 L4.525,34.161 L5.812,33.534 C6.304,33.293 6.618,32.794 6.618,32.247 L6.618,22.44 C6.618,22.019 6.544,21.599 6.39,21.211 C6.3,20.983 6.189,20.757 6.064,20.573 C5.652,19.982 4.835,19.388 4.835,19.388 L7.135,19.388 L7.146,19.388 L9.449,19.388 C9.449,19.388 8.632,19.982 8.218,20.573 C8.088,20.762 7.974,21.004 7.884,21.236 C7.738,21.624 7.666,22.033 7.666,22.445 L7.666,32.246 C7.666,32.793 7.976,33.292 8.47,33.533 L9.732,34.148 C9.869,34.207 9.946,34.267 9.946,34.334 C9.946,34.604 8.692,34.82 7.144,34.82 C5.595,34.82 4.33799025,34.603 4.33799025,34.334 C4.337,34.275 4.413,34.216 4.532,34.161 Z" id="Path" fill="#9E9C8E"></path>
                <path d="M7.126,0.71 L7.143,0.71 L12.203,0.71 C12.203,0.71 14.682,7.019 13.787,12.828 C12.795,19.243 7.476,20.157 7.143,20.211 L7.143,20.211 L7.133,20.211 L7.126,20.211 L7.126,20.211 C6.788,20.157 1.471,19.243 0.48,12.828 C-0.418,7.018 2.062,0.71 2.062,0.71 L7.126,0.71 Z" id="Path" fill="#9E9C8E"></path>
                <path d="M13.389,12.771 C12.459,18.808 7.456,19.667 7.143,19.718 L7.143,19.718 L7.133,19.718 L7.126,19.718 L7.126,19.718 C6.813,19.666 1.809,18.808 0.878,12.771 C0.83,12.482 0.799,12.195 0.771,11.9 L13.497,11.9 C13.47,12.194 13.432,12.481 13.389,12.771 Z" id="Path" fill="#2E0000"></path>
                <path d="M4.66,0.71 C4.66,0.71 2.463,7.019 3.258,12.828 C3.91,17.622 6.707,19.344 8.207,19.931 C7.632,20.128 7.225,20.197 7.143,20.211 L7.143,20.211 L7.133,20.211 L7.126,20.211 L7.126,20.211 C6.788,20.157 1.471,19.243 0.48,12.828 C-0.418,7.018 2.062,0.71 2.062,0.71 L4.66,0.71 Z" id="Path" fill="#FFFFFF" opacity="0.3"></path>
                <path d="M12.482,12.828 C13.377,7.018 10.9,0.71 10.9,0.71 L12.202,0.71 C12.202,0.71 14.681,7.019 13.786,12.828 C12.794,19.243 7.475,20.157 7.142,20.211 L7.142,20.211 L7.132,20.211 L7.125,20.211 L7.125,20.211 C7.061,20.2 6.827,20.161 6.479,20.065 C8,19.63 11.675,18.054 12.482,12.828 Z" id="Path" fill="#FFFFFF" opacity="0.1"></path>
                <path d="M6.817,21.672 C6.885,21.672 6.938,21.726 6.938,21.793 L6.938,32.493 C6.938,32.557 6.885,32.612 6.817,32.612 C6.75,32.612 6.697,32.557 6.697,32.493 L6.697,21.793 C6.697,21.726 6.75,21.672 6.817,21.672 Z" id="Path" fill="#E0E0D6"></path>
                <ellipse id="Oval" fill="#FFFFFF" opacity="0.5" cx="4.715" cy="10.002" rx="3.952" ry="6.938"></ellipse>
                <ellipse id="Oval" fill="#FFFFFF" cx="7.093" cy="1.164" rx="4.412" ry="1"></ellipse>
            </g>
            <g id="Group" transform="translate(286.000000, 99.000000)">
                <path d="M6.935,33.695 C10.123,33.695 12.707,34.146 12.707,34.695 C12.707,35.25 10.122,35.696 6.935,35.696 C3.748,35.696 1.165,35.25 1.165,34.695 C1.165,34.146 3.747,33.695 6.935,33.695 Z" id="Path" fill="#8F8977"></path>
                <path d="M4.324,33.89 L4.317,33.89 L5.606,33.254 C6.097,33.015 6.412,32.514 6.412,31.967 L6.412,22.164 C6.412,21.744 6.337,21.326 6.184,20.932 C6.094,20.713 5.987,20.481 5.856,20.297 C5.446,19.705 4.628,19.116 4.628,19.116 L6.931,19.116 L6.939,19.116 L9.242,19.116 C9.242,19.116 8.425,19.705 8.013,20.297 C7.879,20.491 7.768,20.733 7.677,20.965 C7.531,21.346 7.459,21.757 7.459,22.168 L7.459,31.967 C7.459,32.517 7.769,33.015 8.262,33.257 L9.525,33.875 C9.662,33.933 9.739,33.995 9.739,34.061 C9.739,34.331 8.485,34.549 6.935,34.549 C5.388,34.549 4.132,34.33 4.132,34.061 C4.132,33.998 4.205,33.942 4.324,33.89 Z" id="Path" fill="#9E9C8E"></path>
                <path d="M6.92,0.434 L6.935,0.434 L12,0.434 C12,0.434 14.474,6.742 13.579,12.549 C12.588,18.971 7.269,19.885 6.934,19.934 L6.934,19.938 C6.934,19.938 6.926,19.938 6.926,19.934 C6.924,19.938 6.919,19.938 6.919,19.938 L6.919,19.934 C6.583,19.885 1.264,18.971 0.272,12.549 C-0.623,6.741 1.855,0.434 1.855,0.434 L6.92,0.434 Z" id="Path" fill="#9E9C8E"></path>
                <path d="M13.182,12.495 C12.252,18.529 7.25,19.391 6.935,19.435 L6.935,19.444 L6.927,19.44 L6.92,19.444 L6.92,19.435 C6.606,19.39 1.603,18.529 0.67,12.495 C0.627,12.208 0.591,11.915 0.565,11.627 L13.289,11.627 C13.262,11.915 13.229,12.208 13.182,12.495 Z" id="Path" fill="#2E0000"></path>
                <path d="M4.453,0.434 C4.453,0.434 2.256,6.742 3.05,12.549 C3.704,17.342 6.501,19.063 7.999,19.653 C7.425,19.852 7.022,19.921 6.935,19.934 L6.935,19.938 C6.935,19.938 6.927,19.938 6.927,19.934 C6.925,19.938 6.92,19.938 6.92,19.938 L6.92,19.934 C6.584,19.885 1.265,18.971 0.273,12.549 C-0.622,6.741 1.856,0.434 1.856,0.434 L4.453,0.434 L4.453,0.434 Z" id="Path" fill="#FFFFFF" opacity="0.3"></path>
                <path d="M12.274,12.549 C13.171,6.741 10.694,0.434 10.694,0.434 L12,0.434 C12,0.434 14.474,6.742 13.579,12.549 C12.588,18.971 7.269,19.885 6.934,19.934 L6.934,19.938 C6.934,19.938 6.926,19.938 6.926,19.934 C6.924,19.938 6.919,19.938 6.919,19.938 L6.919,19.934 C6.854,19.924 6.621,19.885 6.273,19.785 C7.792,19.35 11.469,17.775 12.274,12.549 Z" id="Path" fill="#FFFFFF" opacity="0.1"></path>
                <path d="M6.612,21.396 C6.677,21.396 6.732,21.453 6.732,21.52 L6.732,32.22 C6.732,32.285 6.677,32.338 6.612,32.338 C6.544,32.338 6.491,32.285 6.491,32.22 L6.491,21.52 C6.491,21.453 6.544,21.396 6.612,21.396 Z" id="Path" fill="#E0E0D6"></path>
                <path d="M4.507,2.791 C6.695,2.791 8.464,5.895 8.464,9.725 C8.464,13.557 6.694,16.661 4.507,16.661 C2.325,16.661 0.557,13.557 0.557,9.725 C0.557,5.895 2.325,2.791 4.507,2.791 Z" id="Path" fill="#FFFFFF"></path>
                <path d="M6.884,0.604 C9.322,0.604 11.298,0.73 11.298,0.887 C11.298,1.044 9.321,1.169 6.884,1.169 C4.449,1.169 2.472,1.044 2.472,0.887 C2.472,0.73 4.449,0.604 6.884,0.604 Z" id="Path" fill="#FFFFFF"></path>
            </g>
            <g id="Group" transform="translate(178.000000, 55.000000)">
                <path d="M12.106,1.097 C12.106,1.097 11.351,3.141 11.593,6.588 C11.755,8.937 12.756,11.222 12.317,11.76 C11.881,12.304 9.183,12.223 8.918,11.869 C8.314,11.047 11.019,4.542 9.262,1.283 C8.361,-0.379 11.566,0.605 12.106,1.097 Z" id="Path" fill="url(#ClassyDatelinearGradient-17)"></path>
                <path d="M5.771,14.086 C5.771,14.086 7.496,15.38 9.738,15.507 C11.519,15.605 12.62,14.112 12.62,14.112 L5.771,14.086 Z" id="Path" fill="#FFFFFF"></path>
                <path d="M4.563,1.044 C1.861,1.527 0.788,4.633 0.788,4.633 L10.253,5.401 C10.253,5.401 9.92,0.087 4.563,1.044 Z" id="Path" fill="url(#ClassyDatelinearGradient-18)"></path>
                <path d="M15.889,1.023 C15.962,2.463 15.934,3.862 15.821,5.213 L11.221,5.134 C11.221,5.134 11.825,-0.02 15.889,1.023 Z" id="Path" fill="url(#ClassyDatelinearGradient-19)"></path>
                <path d="M2.733,5.102 C2.733,5.102 5.086,4.245 6.36,3.985 C7.373,3.784 8.372,3.844 8.372,3.844 L7.868,4.666 L8.054,5.363 C8.054,5.363 6.123,4.944 2.733,5.102 Z" id="Path" fill="#9F5C44"></path>
                <path d="M12.622,4.927 C13.046,4.641 13.529,4.361 14.58,3.953 C15.547,3.574 16.286,3.523 16.286,3.523 L15.876,4.462 L15.993,5.047 C15.993,5.047 15.055,4.791 12.622,4.927 Z" id="Path" fill="#9F5C44"></path>
            </g>
            <path d="M151.951,261.001 C151.951,261.001 155.43,262.696 157.384,265.747 C159.333,268.8 163.602,274.611 164.949,274.655 C166.298,274.701 166.298,274.701 166.298,274.701 C166.298,274.701 172.638,279.943 172.638,280.473 C172.638,280.999 163.268,281.154 162.018,280.473 C160.77,279.789 157.262,272.338 155.064,271.482 C152.87,270.628 153.112,280.473 153.112,280.473 L151.952,280.473 C151.952,280.473 149.575,269.533 149.575,267.089 C149.574,264.65 151.951,261.001 151.951,261.001 Z" id="Path" fill="#773C34"></path>
            <rect id="Rectangle" fill="#D8EAFE" x="127.724" y="4.5" width="16.489" height="25"></rect>
            <rect id="Rectangle" fill="#D8EAFE" x="265.755" y="4.5" width="16.49" height="25"></rect>
            <rect id="Rectangle" fill="#D8EAFE" x="403.787" y="4.5" width="16.489" height="25"></rect>
            <polygon id="Path" fill="#54545E" points="353.25 43 356.188 42.625 361.313 42.875 362.25 44.125 360.188 43.563 356.125 43.5 354.5 43.875"></polygon>
        </g>
    </g>
</svg>