<?xml version="1.0" encoding="UTF-8"?>
<svg width="586px" height="461px" viewBox="0 0 586 461" version="1.1" xmlns="http://www.w3.org/2000/svg" xmlns:xlink="http://www.w3.org/1999/xlink">
    <title>Honest Open Relationships</title>
    <desc>Honest Open Relationships</desc>
    <defs>
        <linearGradient x1="30.3711587%" y1="-42.4744488%" x2="74.5754529%" y2="175.101053%" id="DOR-1">
            <stop stop-color="#3A8CFA" offset="0%"></stop>
            <stop stop-color="#FFFFFF" offset="100%"></stop>
        </linearGradient>
        <linearGradient x1="-0.000368888558%" y1="50.0004104%" x2="99.9996351%" y2="50.0004104%" id="DOR-2">
            <stop stop-color="#FF9A6A" offset="0%"></stop>
            <stop stop-color="#F17954" offset="99.23%"></stop>
        </linearGradient>
        <linearGradient x1="52.9456455%" y1="31.0427416%" x2="40.3877984%" y2="96.253619%" id="DOR-3">
            <stop stop-color="#FF9A67" offset="0%"></stop>
            <stop stop-color="#FFBD95" offset="99.23%"></stop>
        </linearGradient>
        <linearGradient x1="0.000470923547%" y1="50.0005776%" x2="100.002067%" y2="50.0005776%" id="DOR-4">
            <stop stop-color="#FFBD95" offset="0.77%"></stop>
            <stop stop-color="#FFBA92" offset="2.68%"></stop>
            <stop stop-color="#FFA87C" offset="17.55%"></stop>
            <stop stop-color="#FF9E6E" offset="31.83%"></stop>
            <stop stop-color="#FF9A6A" offset="44.83%"></stop>
            <stop stop-color="#F17954" offset="99.23%"></stop>
        </linearGradient>
        <linearGradient x1="-0.00283454082%" y1="49.9996338%" x2="99.9990988%" y2="49.9996338%" id="DOR-5">
            <stop stop-color="#FFBD95" offset="0.77%"></stop>
            <stop stop-color="#FFBA92" offset="2.68%"></stop>
            <stop stop-color="#FFA87C" offset="17.55%"></stop>
            <stop stop-color="#FF9E6E" offset="31.83%"></stop>
            <stop stop-color="#FF9A6A" offset="44.83%"></stop>
            <stop stop-color="#F17954" offset="99.23%"></stop>
        </linearGradient>
        <linearGradient x1="0.000651745095%" y1="50.0001928%" x2="99.998181%" y2="50.0001928%" id="DOR-6">
            <stop stop-color="#3A8CFA" offset="0%"></stop>
            <stop stop-color="#F04B52" offset="100%"></stop>
        </linearGradient>
        <linearGradient x1="-5.50415338e-05%" y1="49.9976856%" x2="116.827885%" y2="49.9976856%" id="DOR-7">
            <stop stop-color="#FFBD95" offset="0.77%"></stop>
            <stop stop-color="#FF9A67" offset="100%"></stop>
        </linearGradient>
        <linearGradient x1="0.000168703179%" y1="50%" x2="100.00134%" y2="50%" id="DOR-8">
            <stop stop-color="#FFFFFF" offset="0%"></stop>
            <stop stop-color="#F04B52" offset="100%"></stop>
        </linearGradient>
        <linearGradient x1="-0.000189846983%" y1="50.0000843%" x2="99.9996203%" y2="50.0000843%" id="DOR-9">
            <stop stop-color="#FFFFFF" offset="0%"></stop>
            <stop stop-color="#F04B52" offset="100%"></stop>
        </linearGradient>
        <linearGradient x1="3.53221163e-05%" y1="50.0004511%" x2="99.9987579%" y2="50.0004511%" id="DOR-10">
            <stop stop-color="#CD6E42" offset="0%"></stop>
            <stop stop-color="#A84B1C" offset="62.59%"></stop>
            <stop stop-color="#973B0B" offset="98.85%"></stop>
        </linearGradient>
        <linearGradient x1="-0.000922168941%" y1="50%" x2="99.9996926%" y2="50%" id="DOR-11">
            <stop stop-color="#FFBD95" offset="0.77%"></stop>
            <stop stop-color="#FFBA92" offset="2.68%"></stop>
            <stop stop-color="#FFA87C" offset="17.55%"></stop>
            <stop stop-color="#FF9E6E" offset="31.83%"></stop>
            <stop stop-color="#FF9A6A" offset="44.83%"></stop>
            <stop stop-color="#F17954" offset="99.23%"></stop>
        </linearGradient>
        <linearGradient x1="0.000795970768%" y1="49.9993761%" x2="99.9994646%" y2="49.9993761%" id="DOR-12">
            <stop stop-color="#CD6E42" offset="0%"></stop>
            <stop stop-color="#A84B1C" offset="62.59%"></stop>
            <stop stop-color="#973B0B" offset="98.85%"></stop>
        </linearGradient>
        <linearGradient x1="0.0041514447%" y1="49.998093%" x2="100.004151%" y2="49.998093%" id="DOR-13">
            <stop stop-color="#CD6E42" offset="0%"></stop>
            <stop stop-color="#A84B1C" offset="62.59%"></stop>
            <stop stop-color="#973B0B" offset="98.85%"></stop>
        </linearGradient>
        <linearGradient x1="0.00577645133%" y1="50.0108161%" x2="100.002888%" y2="50.0108161%" id="DOR-14">
            <stop stop-color="#E83237" stop-opacity="0.8" offset="0%"></stop>
            <stop stop-color="#E83237" offset="100%"></stop>
        </linearGradient>
        <linearGradient x1="-0.000186130631%" y1="50.0005748%" x2="99.9999375%" y2="50.0005748%" id="DOR-15">
            <stop stop-color="#F17954" offset="0.77%"></stop>
            <stop stop-color="#FF9A6A" offset="64.75%"></stop>
            <stop stop-color="#FFA071" offset="74.81%"></stop>
            <stop stop-color="#FFAF84" offset="89.24%"></stop>
            <stop stop-color="#FFBD95" offset="99.23%"></stop>
        </linearGradient>
        <linearGradient x1="50.0011413%" y1="-0.824983632%" x2="50.0011413%" y2="93.8043206%" id="DOR-16">
            <stop stop-color="#BF8861" offset="0.38%"></stop>
            <stop stop-color="#BA815C" offset="25.81%"></stop>
            <stop stop-color="#AC6E4F" offset="62.52%"></stop>
            <stop stop-color="#9A543D" offset="99.23%"></stop>
        </linearGradient>
        <linearGradient x1="0.000455891072%" y1="49.9999875%" x2="99.9997959%" y2="49.9999875%" id="DOR-17">
            <stop stop-color="#FFBD95" offset="0.77%"></stop>
            <stop stop-color="#FF9A67" offset="100%"></stop>
        </linearGradient>
        <linearGradient x1="50.0017573%" y1="-0.826539002%" x2="50.0017573%" y2="93.8001761%" id="DOR-18">
            <stop stop-color="#FCD9BB" offset="0%"></stop>
            <stop stop-color="#F9D3B4" offset="16.13%"></stop>
            <stop stop-color="#F0C1A1" offset="39.46%"></stop>
            <stop stop-color="#E1A381" offset="67.18%"></stop>
            <stop stop-color="#CD7B56" offset="98.04%"></stop>
            <stop stop-color="#CC7954" offset="99.23%"></stop>
        </linearGradient>
        <linearGradient x1="-0.00135402225%" y1="50.0004853%" x2="99.9999593%" y2="50.0004853%" id="DOR-19">
            <stop stop-color="#FFBD95" offset="0.77%"></stop>
            <stop stop-color="#FFBA92" offset="2.68%"></stop>
            <stop stop-color="#FFA87C" offset="17.55%"></stop>
            <stop stop-color="#FF9E6E" offset="31.83%"></stop>
            <stop stop-color="#FF9A6A" offset="44.83%"></stop>
            <stop stop-color="#F17954" offset="99.23%"></stop>
        </linearGradient>
        <linearGradient x1="-0.0015725743%" y1="50.0039404%" x2="100.004718%" y2="50.0039404%" id="DOR-20">
            <stop stop-color="#FF5F5B" offset="0.38%"></stop>
            <stop stop-color="#C24242" offset="100%"></stop>
        </linearGradient>
        <linearGradient x1="-0.000548230586%" y1="50%" x2="100.000548%" y2="50%" id="DOR-21">
            <stop stop-color="#FF5F5B" offset="0.38%"></stop>
            <stop stop-color="#C24242" offset="100%"></stop>
        </linearGradient>
        <linearGradient x1="40.7996721%" y1="82.7349422%" x2="56.592063%" y2="17.5986431%" id="DOR-22">
            <stop stop-color="#D54B4A" offset="0%"></stop>
            <stop stop-color="#A94B4A" offset="24.9%"></stop>
            <stop stop-color="#BE4D4C" offset="39.69%"></stop>
            <stop stop-color="#D94F4F" offset="63.21%"></stop>
            <stop stop-color="#E95150" offset="84.08%"></stop>
            <stop stop-color="#EF5151" offset="100%"></stop>
        </linearGradient>
        <linearGradient x1="59.1962695%" y1="82.6653996%" x2="43.4138313%" y2="17.6268837%" id="DOR-23">
            <stop stop-color="#D54B4A" offset="0%"></stop>
            <stop stop-color="#D54B4A" offset="24.9%"></stop>
            <stop stop-color="#E95452" offset="40.85%"></stop>
            <stop stop-color="#F95C59" offset="59.39%"></stop>
            <stop stop-color="#FF5F5B" offset="73.56%"></stop>
            <stop stop-color="#FB5D59" offset="80.26%"></stop>
            <stop stop-color="#EF5754" offset="87.1%"></stop>
            <stop stop-color="#DA4E4C" offset="93.98%"></stop>
            <stop stop-color="#C24242" offset="100%"></stop>
        </linearGradient>
        <linearGradient x1="40.8015816%" y1="82.6728469%" x2="56.5821441%" y2="17.619503%" id="DOR-24">
            <stop stop-color="#D54B4A" offset="0%"></stop>
            <stop stop-color="#D54B4A" offset="24.9%"></stop>
            <stop stop-color="#E95452" offset="40.85%"></stop>
            <stop stop-color="#F95C59" offset="59.39%"></stop>
            <stop stop-color="#FF5F5B" offset="73.56%"></stop>
            <stop stop-color="#FB5D59" offset="80.26%"></stop>
            <stop stop-color="#EF5754" offset="87.1%"></stop>
            <stop stop-color="#DA4E4C" offset="93.98%"></stop>
            <stop stop-color="#C24242" offset="100%"></stop>
        </linearGradient>
        <linearGradient x1="49.9962521%" y1="103.371087%" x2="49.9962521%" y2="5.14166045%" id="DOR-25">
            <stop stop-color="#D54B4A" offset="0%"></stop>
            <stop stop-color="#A94B4A" offset="24.9%"></stop>
            <stop stop-color="#AC4A49" offset="30.26%"></stop>
            <stop stop-color="#BC4444" offset="69.79%"></stop>
            <stop stop-color="#C24242" offset="100%"></stop>
        </linearGradient>
        <linearGradient x1="53.4376574%" y1="80.5257829%" x2="44.4705218%" y2="27.7452009%" id="DOR-26">
            <stop stop-color="#D54B4A" offset="0%"></stop>
            <stop stop-color="#D54B4A" offset="24.9%"></stop>
            <stop stop-color="#E95452" offset="40.85%"></stop>
            <stop stop-color="#F95C59" offset="59.39%"></stop>
            <stop stop-color="#FF5F5B" offset="73.56%"></stop>
            <stop stop-color="#FB5D59" offset="80.26%"></stop>
            <stop stop-color="#EF5754" offset="87.1%"></stop>
            <stop stop-color="#DA4E4C" offset="93.98%"></stop>
            <stop stop-color="#C24242" offset="100%"></stop>
        </linearGradient>
        <linearGradient x1="62.1796034%" y1="90.1240312%" x2="39.3004482%" y2="24.2209604%" id="DOR-27">
            <stop stop-color="#D54B4A" offset="0%"></stop>
            <stop stop-color="#A94B4A" offset="24.9%"></stop>
            <stop stop-color="#AC4A49" offset="30.26%"></stop>
            <stop stop-color="#BC4444" offset="69.79%"></stop>
            <stop stop-color="#C24242" offset="100%"></stop>
        </linearGradient>
        <linearGradient x1="54.5874892%" y1="87.6355656%" x2="42.3295229%" y2="22.9967516%" id="DOR-28">
            <stop stop-color="#D54B4A" offset="0%"></stop>
            <stop stop-color="#D54B4A" offset="24.9%"></stop>
            <stop stop-color="#E95452" offset="40.85%"></stop>
            <stop stop-color="#F95C59" offset="59.39%"></stop>
            <stop stop-color="#FF5F5B" offset="73.56%"></stop>
            <stop stop-color="#FB5D59" offset="80.26%"></stop>
            <stop stop-color="#EF5754" offset="87.1%"></stop>
            <stop stop-color="#DA4E4C" offset="93.98%"></stop>
            <stop stop-color="#C24242" offset="100%"></stop>
        </linearGradient>
        <linearGradient x1="-0.00167487837%" y1="49.9971082%" x2="252.574999%" y2="49.9971082%" id="DOR-29">
            <stop stop-color="#FFBD95" offset="10.31%"></stop>
            <stop stop-color="#FF9A67" offset="100%"></stop>
        </linearGradient>
    </defs>
    <g stroke="none" stroke-width="1" fill="none" fill-rule="evenodd">
        <g id="sugar-daddy-gift">
            <g opacity="0.61" transform="translate(0.000000, 271.000000)" fill-rule="nonzero">
                <polygon id="Path" fill="#FFFFFF" points="112.821 82.969 68.354 107.32 131.591 119.777 174.146 94.254"></polygon>
                <polygon id="Path" fill="#D8EAFE" points="174.146 94.254 131.591 119.777 196.785 132.613 235.611 105.561"></polygon>
                <polygon id="Path" fill="#FFFFFF" points="235.611 105.561 196.785 132.613 265.675 146.182 300.658 117.529"></polygon>
                <polygon id="Path" fill="#D8EAFE" points="372.573 130.756 448.412 144.715 490.024 93.518 421.938 82.643"></polygon>
                <polygon id="Path" fill="#FFFFFF" points="490.024 93.518 524.364 51.271 462.758 42.852 421.938 82.643"></polygon>
                <polygon id="Path" fill="#FFFFFF" points="341.443 161.105 422.166 177 448.412 144.715 372.573 130.756"></polygon>
                <polygon id="Path" fill="#D8EAFE" points="300.658 117.529 265.675 146.182 341.443 161.105 372.573 130.756"></polygon>
                <polygon id="Path" fill="#FFFFFF" points="534.561 160.563 566.854 105.795 490.024 93.518 448.412 144.715"></polygon>
                <polygon id="Path" fill="#FFFFFF" points="372.573 130.756 421.938 82.643 356.092 72.121 300.658 117.529"></polygon>
                <polygon id="Path" fill="#D8EAFE" points="300.658 117.529 356.092 72.121 297.123 62.699 235.611 105.561"></polygon>
                <polygon id="Path" fill="#D8EAFE" points="241.563 53.824 183.098 44.48 112.821 82.969 174.146 94.254"></polygon>
                <polygon id="Path" fill="#FFFFFF" points="235.611 105.561 297.123 62.699 241.563 53.824 174.146 94.254"></polygon>
                <polygon id="Path" fill="#D8EAFE" points="68.354 107.32 10.378 139.074 11.136 143.395 72.074 155.469 131.591 119.777"></polygon>
                <polygon id="Path" fill="#D8EAFE" points="196.785 132.613 143.635 169.652 218.836 184.553 265.675 146.182"></polygon>
                <polygon id="Path" fill="#FFFFFF" points="2.44 93.861 10.378 139.074 68.354 107.32"></polygon>
                <polygon id="Path" fill="#D8EAFE" points="112.821 82.969 28.599 67.477 0.389 82.178 2.44 93.861 68.354 107.32"></polygon>
                <polygon id="Path" fill="#FFFFFF" points="131.591 119.777 72.074 155.469 143.635 169.652 196.785 132.613"></polygon>
                <polygon id="Path" fill="#FFFFFF" points="265.675 146.182 218.836 184.553 219.114 184.607 317.84 184.111 341.443 161.105"></polygon>
                <g transform="translate(312.000000, 51.000000)" id="Path">
                    <g transform="translate(100.000000, 93.000000)">
                        <polygon fill="#D8EAFE" points="122.561 16.563 36.412 0.715 10.166 33 57.498 41.609 107.489 40.342"></polygon>
                        <polygon fill="#FFFFFF" points="0.944 43.045 57.498 41.609 10.166 33"></polygon>
                    </g>
                    <polygon fill="#FFFFFF" points="207.489 133.342 268.79 131.789 268.455 118.82 222.561 109.563"></polygon>
                    <polygon fill="#D8EAFE" points="29.443 110.105 0.002 138.604 100.944 136.045 110.166 126"></polygon>
                    <polygon fill="#AEAB99" points="266.262 34.354 254.854 54.795 266.84 56.559"></polygon>
                    <polygon fill="#D8EAFE" points="265.565 7.541 212.364 0.271 178.024 42.518 254.854 54.795 266.262 34.354"></polygon>
                    <polygon fill="#D8EAFE" points="254.854 54.795 222.561 109.563 268.455 118.82 266.84 56.559"></polygon>
                </g>
                <polygon id="Path" fill="#D8EAFE" points="421.938 82.643 462.758 42.852 401.969 34.539 356.092 72.121"></polygon>
                <polygon id="Path" fill="#FFFFFF" points="183.098 44.48 98.623 30.984 28.599 67.477 112.821 82.969"></polygon>
                <polygon id="Path" fill="#FFFFFF" points="356.092 72.121 401.969 34.539 348.095 27.18 297.123 62.699"></polygon>
                <polygon id="Path" fill="#97917A" points="297.123 62.699 348.095 27.18 297.512 20.268 241.563 53.824"></polygon>
                <polygon id="Path" fill="#FFFFFF" points="241.563 53.824 297.512 20.268 241.326 12.588 183.098 44.48"></polygon>
                <polygon id="Path" fill="#D8EAFE" points="241.326 12.588 156.236 0.961 98.623 30.984 183.098 44.48"></polygon>
            </g>
            <path d="M251.182,171.234 C246.732,187.072 243.135,203.589 246.315,232.836 C249.494,262.084 256.503,367.535 256.503,367.535 L295.851,367.535 L310.658,194.113 L251.182,171.234 Z" id="Path" fill="#2F2E41" fill-rule="nonzero"></path>
            <path d="M295.851,367.535 C295.851,367.535 296.906,373.113 297.876,375.482 C299.054,378.359 304.537,381.384 306.572,384.093 C308.025,386.029 307.34,388.855 307.34,388.855 C307.34,388.855 279.565,388.855 277.295,388.855 C273.257,388.855 276.056,367.535 276.056,367.535 L295.851,367.535 Z" id="Path" fill="#773C34" fill-rule="nonzero"></path>
            <path d="M277.879,367.535 C277.879,367.535 277.355,373.113 278.326,375.482 C279.503,378.359 282.685,381.384 284.719,384.093 C286.171,386.029 285.489,388.855 285.489,388.855 C285.489,388.855 256.25,388.855 253.98,388.855 C249.943,388.855 256.503,367.535 256.503,367.535 L277.879,367.535 Z" id="Path" fill="#844E47" fill-rule="nonzero"></path>
            <polygon id="Path" fill="#464656" fill-rule="nonzero" points="277.879 367.535 277.879 290.215 300.779 309.768 295.851 367.535"></polygon>
            <path d="M262.304,85.648 C276.748,75.9 318.809,79.916 329.863,81.289 C342.666,82.881 399.636,99.32 399.636,108.221 C399.636,117.122 350.043,107.586 335.098,111.401 C320.152,115.215 304.267,154.001 293.139,170.13 C282.014,186.259 284.873,210.585 274.065,210.585 C263.255,210.585 238.359,207.411 244.717,191.573 C251.075,175.732 249.587,94.229 262.304,85.648 Z" id="Path" fill="url(#DOR-1)" fill-rule="nonzero"></path>
            <g transform="translate(232.000000, 155.000000)" fill-rule="nonzero">
                <path d="M4.392,256.018 C4.392,256.018 4.415,251.586 5.323,243.864 C6.274,236.169 8.048,225.134 12.173,212.317 C14.234,205.917 16.85,199.051 20.459,192.128 C24.041,185.206 28.478,178.097 34.364,171.651 C40.232,165.245 47.522,159.385 56.107,155.551 C64.693,151.612 74.148,149.877 83.805,150.076 C86.065,150.236 88.064,150.16 90.601,150.615 C93.033,150.959 95.482,151.283 97.731,151.935 L101.168,152.8 L104.505,153.968 C106.757,154.675 108.853,155.726 110.977,156.695 C119.445,160.683 126.484,166.693 132.381,172.992 C138.309,179.324 142.939,186.256 146.758,193.031 C150.604,199.802 153.526,206.525 155.886,212.814 C160.627,225.4 163.02,236.306 164.409,243.939 C165.763,251.591 166.047,256.018 166.047,256.018 C166.047,256.018 164.967,251.718 162.569,244.402 C160.164,237.095 156.465,226.738 150.851,214.966 C145.165,203.29 137.499,189.999 126.336,178.82 C120.788,173.242 114.258,168.4 106.981,164.996 C105.142,164.189 103.332,163.291 101.394,162.726 L98.527,161.749 L95.573,161.056 C93.587,160.499 91.661,160.304 89.729,160.031 C87.931,159.658 85.487,159.742 83.356,159.597 C75.408,159.341 67.057,160.701 59.818,163.968 C52.527,167.191 45.912,171.8 40.447,177.406 C29.493,188.672 22.387,202.301 17.286,214.209 C12.255,226.229 9.156,236.785 7.178,244.217 C5.211,251.662 4.392,256.018 4.392,256.018 Z" id="Path" fill="#583225"></path>
                <path d="M150.563,154.768 L19.313,154.768 L19.313,62.178 C19.313,28.336 46.744,0.907 80.583,0.907 L89.292,0.907 C123.129,0.907 150.563,28.337 150.563,62.178 L150.563,154.768 Z" id="Path" fill="#583225"></path>
                <path d="M4.437,154.768 L19.752,154.768 L19.752,70.485 C19.752,66.35 16.404,63.003 12.271,63.003 L11.918,63.003 C7.787,63.003 4.437,66.351 4.437,70.485 L4.437,154.768 Z" id="Path" fill="#F04B52"></path>
                <path d="M149.551,154.768 L165.042,154.768 L165.042,70.528 C165.042,66.372 161.673,63.003 157.515,63.003 L157.076,63.003 C152.919,63.003 149.552,66.372 149.552,70.528 L149.552,154.768 L149.551,154.768 Z" id="Path" fill="#F04B52"></path>
                <rect id="Rectangle" fill="#F04B52" x="4.97" y="145.867" width="159.78" height="8.9"></rect>
                <ellipse id="Oval" fill="#724C33" cx="4.691" cy="252.18" rx="3.894" ry="4.406"></ellipse>
                <ellipse id="Oval" fill="#724C33" cx="165.042" cy="252.18" rx="3.895" ry="4.406"></ellipse>
            </g>
            <g transform="translate(289.000000, 44.000000)" fill-rule="nonzero">
                <path d="M1.973,33 C1.973,33 1.276,42.931 3.183,46.987 C5.088,51.039 10.098,57.368 15.937,57.368 C21.773,57.368 29.256,42.107 29.256,42.107 L1.973,33 Z" id="Path" fill="url(#DOR-2)"></path>
                <path d="M0.349,26.476 C0.878,31.822 1.998,37.102 5.125,40.75 C6.625,42.5 6.786,39.811 7.25,40.375 C15.375,50.25 14.75,52.75 22,52.5 C25.424,52.382 30.02,43.992 32.43,36.439 C33.001,34.649 31.844,32.599 32.125,30.625 C32.27,29.609 33.976,28.721 34.025,27.674 C34.096,26.186 34.066,24.672 33.916,23.152 C32.585,9.713 23.992,-0.442 14.722,0.478 C5.454,1.393 -0.981,13.034 0.349,26.476 Z" id="Path" fill="url(#DOR-3)"></path>
            </g>
            <path d="M341.778,150.66 C341.778,150.66 340.904,150.086 335.345,148.863 L335.345,148.863 C335.345,148.863 329.081,142.439 327.947,137.558 C326.737,132.324 327.451,113.953 327.451,113.953 L307.183,113.355 C307.183,113.355 308.87,126.828 308.15,133.265 C307.431,139.703 301.139,146.072 301.139,146.072 L301.139,146.072 C289.091,148.187 280.232,153.783 278.595,156.857 C276.688,160.433 286.462,178.316 286.462,178.316 L301.484,182.609 L346.067,176.408 L341.778,150.66 Z" id="Path" fill="url(#DOR-4)" fill-rule="nonzero"></path>
            <path d="M401.644,125.328 C400.779,124.51 394.478,130.516 393.99,130.209 C393.496,129.904 399.733,122.039 398.317,121.406 C397.22,120.918 392.345,128.97 391.414,128.152 C390.976,127.771 396.154,120.244 394.737,119.82 C393.8,119.541 386.688,130.658 386.034,130.275 C385.382,129.892 387.1,125.423 386.581,124.138 C386.062,122.849 384.688,122.521 384.706,123.242 C384.729,123.967 384.284,127.996 383.055,129.959 C381.826,131.926 381.877,136.662 382.24,138.02 C382.311,138.286 382.307,138.651 382.281,139.045 C382.035,140.188 381.76,141.44 381.47,142.783 C381.437,142.885 381.413,142.945 381.413,142.945 L381.43,142.955 C378.225,157.672 372.781,182.658 372.595,183.346 C372.33,184.323 341.78,150.66 341.78,150.66 C341.78,150.66 343.418,175.961 344.134,176.678 C344.852,177.397 378.634,197.199 381.642,193.817 C383.851,191.337 386.144,160.628 387.208,144.491 C387.511,143.171 388.036,141.432 388.685,141.485 C389.736,141.567 395.109,135.643 395.895,135.059 C396.684,134.471 401.77,131.534 401.566,130.998 C401.218,130.082 396.383,132.598 396.058,132.242 C395.514,131.654 402.724,126.35 401.644,125.328 Z" id="Path" fill="url(#DOR-5)" fill-rule="nonzero"></path>
            <path d="M300.768,145.23 C300.768,145.23 313.888,170.128 321.995,170.128 C330.1,170.128 333.674,146.845 333.674,146.845 C333.674,146.845 339.871,148.751 341.779,150.659 C343.685,152.565 349.408,177.837 349.408,183.083 C349.408,188.329 336.752,200.978 336.752,207.175 C336.752,213.374 336.752,242.689 338.18,244.12 C339.612,245.552 361.506,260.39 368.484,270.349 C382.628,290.533 374.705,300.867 374.705,300.867 L276.19,300.867 C276.19,300.867 269.513,293.236 269.513,281.312 C269.513,269.394 293.32,240.636 295.703,225.613 C298.085,210.593 286.462,178.316 286.462,178.316 C286.462,178.316 292.661,169.734 292.661,162.58 C292.661,155.426 290.277,148.035 290.277,148.035 L300.768,145.23 Z" id="Path" fill="url(#DOR-6)" fill-rule="nonzero"></path>
            <g opacity="0.7" transform="translate(282.000000, 158.000000)" fill-rule="nonzero">
                <path d="M62.836,24.967 C50.52,31.86 36.053,34.465 23.002,27.895 C21.908,27.344 20.942,28.989 22.04,29.543 C35.703,36.422 50.855,33.857 63.799,26.617 C64.872,26.016 63.912,24.367 62.836,24.967 Z" id="Path" fill="#695053"></path>
                <path d="M59.514,44.904 C47.261,49.592 34.2,50.103 21.625,46.353 C20.44,46.001 19.94,47.839 21.115,48.193 C33.989,52.029 47.47,51.543 60.019,46.744 C61.157,46.311 60.665,44.467 59.514,44.904 Z" id="Path" fill="#FFFFFF"></path>
                <path d="M59.207,59.371 C53.427,59.666 48.311,62.154 42.413,61.982 C34.859,61.755 27.329,61.328 19.968,59.505 C18.775,59.208 18.269,61.048 19.462,61.345 C25.853,62.929 32.325,63.466 38.889,63.753 C41.697,63.876 44.71,64.232 47.503,63.771 C51.464,63.115 55.161,61.484 59.207,61.279 C60.43,61.217 60.437,59.309 59.207,59.371 Z" id="Path" fill="#FFFFFF"></path>
                <path d="M58.617,74.875 C51.933,76.928 45.268,79.277 38.452,80.828 C30.717,82.582 22.984,79.842 15.775,77.281 C14.613,76.871 14.118,78.713 15.269,79.121 C22.374,81.644 29.38,83.877 36.999,83 C44.453,82.141 51.976,78.904 59.122,76.715 C60.296,76.355 59.795,74.514 58.617,74.875 Z" id="Path" fill="#FFFFFF"></path>
                <path d="M64.203,88.547 C59.918,87.836 56.356,89.19 52.494,90.963 C45.846,94.008 39.214,95.311 32.002,96.25 C22.289,97.516 12.449,99.037 4.901,105.809 C3.985,106.629 5.338,107.977 6.251,107.159 C13.828,100.358 23.987,99.204 33.675,97.936 C38.207,97.348 42.668,96.594 47.05,95.268 C52.626,93.58 57.547,89.37 63.695,90.385 C64.896,90.584 65.412,88.746 64.203,88.547 Z" id="Path" fill="#FFFFFF"></path>
                <path d="M10.28,119.764 C16.41,112.828 24.388,112.17 32.919,110.686 C41.034,109.278 47.425,104.028 55.046,101.303 C63.01,98.455 74.331,98.106 79.939,105.537 C80.163,105.836 80.474,105.933 80.777,105.926 C78.198,103.424 75.231,100.869 72.264,98.449 C68.673,97.494 64.738,97.47 60.91,97.965 C50.007,99.361 41.66,107.24 30.873,109.113 C26.293,109.91 21.347,110.123 17.102,112.211 C13.045,114.207 9.886,117.143 7.05,120.637 C1.963,126.893 -0.535,134.905 0.413,142.867 L2.289,142.867 C1.138,134.271 4.601,126.188 10.28,119.764 Z" id="Path" fill="#FFFFFF"></path>
                <path d="M94.223,128.518 C93.369,124.786 91.592,120.321 88.338,115.153 C87.025,114.022 85.547,113.087 83.87,112.44 C80.201,111.032 76.718,110.739 72.847,111.344 C67.597,112.166 64.201,116.473 58.578,116.18 C50.14,115.741 41.337,116.412 33.649,122.201 C30.257,124.756 27.121,128.324 25.9,132.355 C24.635,136.541 24.234,139.357 24.125,142.867 L26.166,142.867 C26.696,136.949 27.761,132.228 30.742,128.094 C35.471,121.537 46.807,117.6 55.137,117.729 C58.148,117.774 60.727,118.426 63.689,117.565 C67.118,116.571 69.769,114.051 73.353,113.188 C88.925,109.418 93.692,128.678 94.223,128.518 Z" id="Path" fill="#FFFFFF"></path>
                <g transform="translate(13.000000, 0.000000)" id="Path">
                    <path d="M29.79,11.146 C36.191,10.039 42.027,6.148 47.316,2.675 C48.34,2.003 47.384,0.351 46.354,1.029 C41.835,3.996 37.308,6.785 32.324,8.353 C31.556,9.514 30.711,10.482 29.79,11.146 Z" fill="#695053"></path>
                    <path d="M1.637,9.277 C9.167,10.093 17.032,11.627 24.682,11.548 C23.746,11.112 22.772,10.452 21.784,9.62 C15.087,9.378 8.24,8.083 1.638,7.37 C0.416,7.236 0.431,9.145 1.637,9.277 Z" fill="#FFFFFF"></path>
                </g>
            </g>
            <path d="M281.182,154.125 C275.206,154.125 262.023,189.164 261.188,190 C260.625,190.564 242.79,182.547 231.33,177.311 C231.323,177.309 226.785,174.549 226.188,173.233 C225.591,171.915 222.542,168.098 220.283,167.331 C218.019,166.565 215.034,163.642 214.581,163.05 C214.124,162.46 213.243,163.624 213.668,164.988 C214.09,166.355 218.379,168.799 218.107,169.529 C217.837,170.263 204.909,166.027 204.344,166.863 C203.489,168.129 212.53,170.756 212.432,171.343 C212.218,172.605 203.077,169.353 202.519,170.462 C201.801,171.89 211.906,174.101 211.717,174.663 C211.526,175.231 202.581,174.544 202.424,175.763 C202.229,177.283 211.438,176.812 211.392,177.63 C211.362,178.132 205.866,179.276 206.184,180.234 C206.37,180.798 212.348,179.822 213.358,179.777 C214.364,179.732 222.519,180.951 223.301,180.205 C223.47,180.043 223.777,180.084 224.139,180.213 C234.364,187.844 259.043,205.975 262.62,205.975 C267.152,205.975 286.463,178.319 286.463,178.319 C286.463,178.319 285.464,154.125 281.182,154.125 Z" id="Path" fill="url(#DOR-7)" fill-rule="nonzero"></path>
            <path d="M301.543,144.865 C301.543,144.865 309.353,180.681 310.522,193.111 C311.438,202.84 307.134,230.699 303.304,242.226 C301.588,247.384 293.593,260.583 290.016,272.746 C286.439,284.904 285.013,293.965 285.013,293.965 L264.984,283.09 C264.984,283.09 267.403,271.422 273.568,258.49 C279.397,246.252 288.968,232.885 289.779,227.205 C291.449,215.519 287.157,182.609 285.726,182.609 C284.294,182.609 268.323,208.132 264.984,208.132 C261.645,208.132 251.371,199.698 251.371,199.698 L254.299,187.52 C254.299,187.52 259.144,189.413 259.977,188.579 C260.812,187.743 273.116,157.347 278.35,153.054 C283.582,148.766 301.543,144.865 301.543,144.865 Z" id="Path" fill="url(#DOR-8)" fill-rule="nonzero"></path>
            <path d="M332.336,145.23 C332.336,145.23 339.77,175.853 339.77,181.585 C339.77,187.319 337.302,202.171 337.302,204.558 C337.302,206.943 335.346,237.218 338.179,244.121 C339.174,246.541 362.509,263.883 362.509,263.883 C362.509,263.883 351.423,250.246 349.467,244.373 C344.143,228.394 347.908,200.365 348.511,196.687 C348.882,194.433 351.532,186.195 351.532,183.574 C351.532,180.949 374.453,203.463 379.191,200.74 C383.928,198.017 385.01,172.672 385.01,172.672 L375.563,169.852 L372.63,178.309 C372.63,178.309 343.591,150.375 341.778,148.561 C339.963,146.744 332.336,145.23 332.336,145.23 Z" id="Path" fill="url(#DOR-9)" fill-rule="nonzero"></path>
            <path d="M309.705,300.867 C309.705,300.867 315.29,279.258 332.935,279.258 C350.578,279.258 365.361,277.528 370.924,283.09 C376.486,288.654 376.915,297.145 374.552,301.428 L309.705,300.867 Z" id="Path" fill="#9C251F" fill-rule="nonzero"></path>
            <path d="M331.028,96.785 C331.028,96.785 336.737,100.137 338.896,106.42 C343.904,120.986 336.868,126.233 339.372,128.736 C341.876,131.238 344.618,134.338 344.618,139.82 C344.618,145.306 340.314,147.027 343.097,149.808 C345.878,152.589 346.288,154.962 345.095,160.208 C343.905,165.452 336.591,171.419 338.596,173.423 C340.602,175.429 342.753,175.464 342.753,175.464 C342.753,175.464 338.912,178.312 335.837,176.183 C329.477,171.771 335.968,163.042 335.346,159.73 C334.515,155.318 330.311,156.392 327.928,150.671 C325.545,144.95 328.065,134.255 326.963,131.294 C325.86,128.338 331.028,96.785 331.028,96.785 Z" id="Path" fill="url(#DOR-10)" fill-rule="nonzero"></path>
            <path d="M303.305,111.295 C303.305,124.32 312.989,134.836 320.424,134.836 C327.904,134.836 335.837,124.32 335.837,111.295 C335.837,98.266 328.557,89.873 319.571,89.873 C310.589,89.873 303.305,98.266 303.305,111.295 Z" id="Path" fill="url(#DOR-11)" fill-rule="nonzero"></path>
            <path d="M307.706,97.025 C307.706,97.025 309.878,102.929 310.646,103.701 C311.419,104.474 323.636,98.931 327.927,101.318 C332.218,103.701 332.01,109.17 333.773,112.379 C335.537,115.586 337.703,114.908 338.537,118.723 C339.098,121.284 335.837,123.967 335.837,123.967 C335.837,123.967 341.778,123.49 342.753,116.578 C344.064,107.297 337.719,105.455 337.108,100.004 C336.265,92.496 331.893,86.059 322.919,85.104 C313.949,84.152 305.84,89.395 307.706,97.025 Z" id="Path" fill="url(#DOR-12)" fill-rule="nonzero"></path>
            <path d="M310.646,103.701 C310.646,103.701 305.562,103.545 304.48,108.469 C303.401,113.397 304.881,119.944 304.881,119.944 C304.881,119.944 298.602,119.178 298.602,105.133 C298.602,99.569 304.178,94.354 307.706,93.725 L310.646,103.701 Z" id="Path" fill="url(#DOR-13)" fill-rule="nonzero"></path>
            <path d="M326.195,126.734 C326.195,126.734 324.194,129.537 321.237,129.824 C318.185,130.117 315.808,127.771 315.808,127.771 L326.195,126.734 Z" id="Path" fill="url(#DOR-14)" fill-rule="nonzero"></path>
            <path d="M374.203,302.455 C376.746,296.096 374.268,284.793 366.89,282.109 C359.896,279.566 348.452,285.607 341.149,295.779 C335.189,304.078 316.323,360.365 309.571,380.832 C309.343,380.975 309.202,381.242 309.202,381.701 C309.202,381.826 309.179,381.943 309.163,382.06 C309.043,382.435 308.923,382.792 308.811,383.138 C307.529,385.523 303.518,387.064 304.324,390.882 C306.122,399.417 304.742,411.087 305.396,411.743 C306.052,412.401 321.789,412.28 322.801,411.264 C323.816,410.252 314.814,405.903 314.814,402.803 C314.814,399.977 315.821,388.09 316.001,385.994 C325.926,372.201 371.935,308.125 374.203,302.455 Z" id="Path" fill="url(#DOR-15)" fill-rule="nonzero"></path>
            <path d="M306.733,385.83 C306.733,385.83 306.733,389.213 306.733,391.359 C306.733,393.505 308.093,408.882 308.57,409.359 C309.046,409.839 317.223,406.226 317.223,406.226 C317.223,406.226 323.278,409.953 323.278,411.017 C323.278,412.083 307.497,413.294 305.828,411.624 C304.158,409.954 305.616,401.134 304.652,396.843 C303.683,392.553 302.275,388.4 306.733,385.83 Z" id="Path" fill="url(#DOR-16)" fill-rule="nonzero"></path>
            <path d="M308.14,403.639 C308.14,400.541 309.353,386.485 309.353,386.481 C315.257,373.338 346.544,303.385 346.544,297.051 C346.544,290.059 339.235,280.201 333.514,280.201 C319.843,280.201 310.624,294.508 305.538,312.627 C301.319,327.652 302.127,368.877 302.528,382.533 L302.528,382.537 C302.528,385.869 296.694,387.189 297.647,391.719 C299.444,400.252 298.065,411.922 298.72,412.578 C299.375,413.236 313.206,413.115 314.216,412.101 C315.232,411.088 308.14,406.74 308.14,403.639 Z" id="Path" fill="url(#DOR-17)" fill-rule="nonzero"></path>
            <path d="M299.626,386.779 C299.626,386.779 299.626,390.168 299.626,392.314 C299.626,394.46 300.986,409.839 301.462,410.314 C301.941,410.791 310.118,407.179 310.118,407.179 C310.118,407.179 314.936,411.044 314.936,412.111 C314.936,413.174 300.388,414.248 298.72,412.578 C297.049,410.908 298.51,402.09 297.543,397.799 C296.574,393.506 295.17,389.355 299.626,386.779 Z" id="Path" fill="url(#DOR-18)" fill-rule="nonzero"></path>
            <rect id="Rectangle" fill="#FEF2E8" fill-rule="nonzero" x="305.4" y="183.529" width="42.716" height="12.689"></rect>
            <path d="M296.457,179.283 C296.457,179.283 299.792,180.713 300.986,180.713 C302.179,180.713 303.495,179.447 306.111,180.049 C308.729,180.653 309.926,182.303 311.221,182.303 C312.515,182.303 314.632,181.481 314.781,182.303 C315.052,183.813 312.675,184.328 310.646,184.328 C308.621,184.328 306.472,184.41 305.697,185.183 C304.921,185.96 306.701,191.966 307.706,192.722 C309.809,194.302 317.977,195.097 318.71,196.529 C319.245,197.578 304.921,197.189 303.297,195.566 C301.675,193.947 289.183,185.361 289.183,185.361 L296.457,179.283 Z" id="Path" fill="url(#DOR-19)" fill-rule="nonzero"></path>
            <path d="M270.981,85.441 C281.136,87.902 279.723,97.656 277.839,103.404 C275.302,111.152 264.51,140.603 266.798,143.666 C269.085,146.729 298.602,179.805 298.602,179.805 L291.451,190.358 C291.451,190.358 252.114,160.405 247.137,153.745 C242.161,147.081 249.258,113.266 251.752,105.079 C256.04,91.012 260.676,82.949 270.981,85.441 Z" id="Path" fill="#3A8CFA" fill-rule="nonzero"></path>
            <rect id="Rectangle" fill="url(#DOR-20)" fill-rule="nonzero" x="323.796" y="183.529" width="6.359" height="12.689"></rect>
            <polygon id="Path" fill="url(#DOR-21)" fill-rule="nonzero" points="311.635 183.668 326.378 182.084 348.116 183.529"></polygon>
            <g transform="translate(318.000000, 176.000000)" fill-rule="nonzero">
                <path d="M4.506,1.646 C3.551,4.445 4.506,6.449 5.188,6.746 C5.503,6.883 8.461,7.101 9.436,6.752 C10.854,6.246 13.222,3.109 11.851,1.281 C11.052,0.211 5.217,-0.447 4.506,1.646 Z" id="Path" fill="url(#DOR-22)"></path>
                <path d="M8.484,1.797 C9.439,4.594 8.484,6.602 7.801,6.897 C7.483,7.036 4.524,7.252 3.553,6.907 C2.135,6.397 -0.237,3.261 1.134,1.432 C1.936,0.365 7.77,-0.293 8.484,1.797 Z" id="Path" fill="url(#DOR-23)"></path>
                <path d="M10.603,1.797 C9.648,4.594 10.603,6.602 11.288,6.897 C11.604,7.036 14.561,7.252 15.533,6.907 C16.955,6.397 19.321,3.261 17.953,1.432 C17.153,0.365 11.316,-0.293 10.603,1.797 Z" id="Path" fill="url(#DOR-24)"></path>
                <path d="M8.145,7.535 C8.131,7.344 7.874,4.125 8.5,2.853 C9.126,1.585 15.089,1.683 15.595,2.697 C16.104,3.711 11.962,7.668 11.962,7.668 L8.145,7.535 Z" id="Path" fill="url(#DOR-25)"></path>
                <path d="M8.5,2.854 C8.5,2.854 9.301,1.993 10.019,2.854 C12.694,6.069 8.145,7.536 8.145,7.536 C8.602,7.702 14.907,8.052 15.638,7.321 C16.278,6.684 17.218,4.321 15.848,2.489 C15.05,1.422 9.259,1.529 8.5,2.854 Z" id="Path" fill="url(#DOR-26)"></path>
                <path d="M8.145,7.535 C8.106,7.346 7.963,4.174 6.306,2.664 C5.312,1.758 1.467,2.752 1.382,3.824 C1.298,4.896 3.818,7.095 5.061,7.437 C5.683,7.607 8.145,7.535 8.145,7.535 Z" id="Path" fill="url(#DOR-27)"></path>
                <path d="M6.306,2.664 C6.306,2.664 5.498,1.982 5.259,2.943 C4.518,5.922 8.145,7.535 8.145,7.535 C7.692,7.646 3.084,7.588 2.389,7.017 C1.789,6.517 0.688,5.689 1.153,3.671 C1.427,2.492 5.479,1.684 6.306,2.664 Z" id="Path" fill="url(#DOR-28)"></path>
            </g>
            <path d="M331.859,109.049 C331.859,109.049 325.916,107.022 323.416,107.25 C320.918,107.475 317.011,107.631 316.395,107.389 C315.782,107.149 315.723,109.321 316.369,109.799 C318.275,111.203 310.268,110.842 308.792,111.869 C308.064,112.371 309.078,114.105 309.078,114.105 C309.078,114.105 307.015,114.882 307.514,115.951 C308.012,117.023 310.762,116.994 310.53,117.621 C310.302,118.25 309.197,119.16 309.582,119.834 C309.97,120.512 313.406,120.047 313.406,120.047 C313.406,120.047 312.313,122.264 313.102,122.551 C313.892,122.838 325.137,122.809 329.761,120.655 C334.383,118.503 345.569,117.641 346.069,116.259 C346.571,114.879 331.859,109.049 331.859,109.049 Z" id="Path" fill="url(#DOR-29)" fill-rule="nonzero"></path>
            <path d="M399.522,107.582 C401.957,113.457 390.731,119.15 381.61,120.506 C372.491,121.863 335.684,119.035 335.684,119.035 L334.328,109.92 C334.328,109.92 363.734,97.516 372.779,97.879 C381.824,98.238 396.512,100.318 399.522,107.582 Z" id="Path" fill="#3A8CFA" fill-rule="nonzero"></path>
            <path d="M582.334,3.666 L586,0" id="Path"></path>
            <g transform="translate(286.000000, 42.000000)" fill-rule="nonzero">
                <path d="M36.157,9.47 C36.157,7.803 31.678,3.046 28.832,2.198 C29.064,4.285 29.098,13.356 31.006,15.666 C32.996,18.075 33.365,19.744 34.147,22.401 C34.537,22.433 34.801,22.488 34.89,22.576 C35.944,23.631 37.075,28.553 37.075,28.553 C37.075,28.553 38.97,19.983 38.97,18.624 C38.969,17.263 36.157,11.298 36.157,9.47 Z" id="Path" fill="#683117"></path>
                <path d="M28.832,2.197 C28.55,2.113 28.277,2.053 28.033,2.053 C25.332,2.053 19.734,0.262 16.028,0.699 C12.32,1.137 10.644,3.037 9.477,4.203 C8.309,5.374 2.589,11.04 2.589,13.638 C2.589,16.233 -0.44,20.373 0.304,22.351 C0.747,23.539 3.309,35.244 4.487,31.525 C5.193,29.288 7.453,33.975 7.453,33.975 C7.827,33.6 6.896,27.336 8.192,26.037 C9.38,24.849 29.897,22.056 34.146,22.399 C33.365,19.742 32.996,16.74 31.005,14.331 C29.098,12.021 29.064,4.285 28.832,2.197 Z" id="Path" fill="#8E4C32"></path>
            </g>
        </g>
    </g>
</svg>