<?xml version="1.0" encoding="iso-8859-1"?>
<svg version="1.1" id=" " xmlns="http://www.w3.org/2000/svg" xmlns:xlink="http://www.w3.org/1999/xlink" x="0px" y="0px"
	 viewBox="0 0 512.001 512.001" style="enable-background:new 0 0 512.001 512.001;" xml:space="preserve">
<circle style="fill:#FFE18D;" cx="256" cy="256" r="246"/>
<path style="fill:#993CAA;" d="M129.972,389V201.194c0-69.603,56.425-126.028,126.028-126.028l0,0
	c69.603,0,126.028,56.425,126.028,126.028V389"/>
<path style="fill:#FFC096;" d="M349.746,229.48h-13.135v-29.705c0,0-22.218,15.758-56.329,5.491
	C246.17,195,235.481,171.48,235.481,171.48S227.5,191.296,208,199.774s-33.389,7.762-33.389,7.762v21.943h-13.135
	c-7.071,0-12.802,5.732-12.802,12.802v21.396c0,7.07,5.731,12.802,12.802,12.802h13.135v-11.198c0,44.664,36.265,80.872,81,80.872
	l0,0c44.735,0,81-36.208,81-80.872v11.198h13.135c7.07,0,12.802-5.732,12.802-12.802v-21.396
	C362.548,235.211,356.816,229.48,349.746,229.48z"/>
<path style="fill:#FC5271;" d="M112.739,451.5v-4.233c0-45.679,31.435-84.011,73.85-94.558c0,0,38.421-10.658,69.41-10.658
	s69.41,10.658,69.41,10.658c42.416,10.547,73.85,48.879,73.85,94.558v4.233c0,0-43.741,50.5-143.261,50.5
	S112.739,451.5,112.739,451.5z"/>
<path d="M461.319,103.041c-3.304-4.425-9.572-5.333-13.995-2.028c-4.426,3.305-5.333,9.571-2.028,13.996
	c69.575,93.158,59.938,225.513-22.419,307.868c-4.601,4.601-9.352,8.96-14.226,13.101c-1.791-17.154-7.607-33.239-16.623-47.167
	V201.194c0-75.006-61.022-136.028-136.028-136.028s-136.028,61.022-136.028,136.028V388.81
	c-9.015,13.928-14.832,30.013-16.623,47.167c-4.875-4.141-9.625-8.5-14.226-13.101C44.548,378.302,20,319.038,20,256
	S44.548,133.697,89.123,89.123c82.449-82.45,214.897-92.019,308.081-22.26c4.422,3.31,10.688,2.409,13.998-2.013
	c3.311-4.421,2.409-10.688-2.012-13.998C360.376,14.31,299.816-3.54,238.667,0.584C176.922,4.75,118.79,31.17,74.98,74.98
	C26.629,123.332,0,187.619,0,256c0,68.38,26.629,132.667,74.98,181.02C123.333,485.371,187.62,512,256,512
	s132.667-26.629,181.02-74.98c43.773-43.774,70.191-101.857,74.388-163.549C515.562,212.377,497.773,151.851,461.319,103.041z
	 M256,85.167c63.979,0,116.028,52.05,116.028,116.028v36.258c-2.222-10.261-11.366-17.973-22.282-17.973h-3.136v-19.705
	c0-5.523-4.478-10-10-10c-2.214,0-4.254,0.729-5.911,1.947c-9.114,4.317-18.861,6.531-29.012,6.531
	c-23.614,0-45.192-11.988-57.723-32.067c-1.971-3.158-5.529-4.962-9.243-4.677c-3.712,0.283-6.959,2.604-8.428,6.024
	c-7.884,18.347-25.873,30.203-45.831,30.203c-1.586,0-3.23-0.082-4.887-0.242c-0.001,0.032-0.005,0.06-0.006,0.091
	c-0.316-0.03-0.636-0.048-0.959-0.048c-5.522,0-10,4.477-10,10v11.943h-3.135c-9.918,0-18.374,6.367-21.504,15.227v-33.512
	C139.972,137.216,192.021,85.167,256,85.167z M346.61,265.282V239.48h3.136c1.545,0,2.802,1.257,2.802,2.802v21.396
	c0,1.545-1.257,2.802-2.802,2.802h-3.136V265.282z M184.61,229.48v-11.867c20.841-1.23,39.795-11.677,51.982-28.127
	c16.521,18.238,39.911,28.767,65.095,28.767c8.553,0,16.889-1.204,24.923-3.585v14.811v35.802c0,39.079-31.851,70.872-71,70.872
	s-71-31.793-71-70.872L184.61,229.48L184.61,229.48z M164.61,265.282v1.198h-3.135c-1.546,0-2.803-1.257-2.803-2.802v-21.396
	c0-1.545,1.257-2.802,2.803-2.802h3.135V265.282z M166.48,474.355v-37.269c0-5.523-4.478-10-10-10s-10,4.477-10,10v27.984
	c-8.129-4.252-16.055-9.021-23.741-14.284v-3.519c0-33.295,18.648-62.905,47.166-77.645c14.187,16.113,32.857,28.161,53.351,34.264
	c0.952,0.284,1.913,0.418,2.858,0.418c4.309,0,8.287-2.808,9.58-7.148c1.576-5.293-1.437-10.862-6.729-12.438
	c-14.456-4.305-27.816-12.201-38.711-22.715c4.6-1.808,7.266-6.781,6.04-11.708c-1.332-5.36-6.759-8.623-12.117-7.292
	c-16.782,4.173-31.782,12.148-44.205,22.859v-94.61c3.13,8.86,11.586,15.227,21.504,15.227h5.641
	c9.589,39.916,45.625,69.674,88.495,69.674s78.905-29.758,88.493-69.674h5.642c10.916,0,20.06-7.712,22.282-17.972v97.356
	c-12.423-10.711-27.423-18.686-44.205-22.859c-5.363-1.332-10.785,1.932-12.117,7.292c-1.229,4.939,1.453,9.926,6.076,11.723
	c-10.623,10.319-23.46,17.968-37.753,22.398c-5.275,1.635-8.227,7.237-6.592,12.512c1.329,4.29,5.281,7.042,9.549,7.042
	c0.98,0,1.978-0.145,2.963-0.451c20.316-6.296,38.194-17.95,52.158-33.892c28.511,14.742,47.154,44.348,47.154,77.639v3.519
	c-7.687,5.263-15.612,10.032-23.741,14.284v-27.984c0-5.523-4.478-10-10-10s-10,4.477-10,10v37.269
	C288.3,497.724,223.7,497.724,166.48,474.355z"/>
<path d="M422.962,89.208c1.953,1.958,4.517,2.938,7.08,2.938c2.555,0,5.11-0.973,7.062-2.92c3.911-3.9,3.919-10.232,0.019-14.142
	l-0.189-0.19c-3.899-3.91-10.232-3.918-14.142-0.018c-3.911,3.9-3.919,10.232-0.019,14.142L422.962,89.208z"/>
<path d="M256.029,388.637H256c-5.522,0-9.985,4.477-9.985,10s4.492,10,10.015,10c5.523,0,10-4.477,10-10
	S261.552,388.637,256.029,388.637z"/>
<path d="M255.61,312.444c7.429,0,14.362-4.001,18.094-10.443c2.769-4.779,1.14-10.897-3.64-13.666
	c-4.78-2.769-10.897-1.138-13.665,3.64c-0.082,0.141-0.322,0.469-0.789,0.469c-0.466,0-0.706-0.328-0.788-0.469
	c-2.767-4.778-8.885-6.408-13.665-3.64c-4.779,2.769-6.408,8.887-3.64,13.666C241.249,308.443,248.182,312.444,255.61,312.444z"/>
<path d="M219.729,261.163c5.815,0,10.547-4.731,10.547-10.547c0-5.815-4.731-10.547-10.547-10.547s-10.547,4.731-10.547,10.547
	C209.182,256.431,213.913,261.163,219.729,261.163z"/>
<path d="M292.271,261.163c5.815,0,10.547-4.731,10.547-10.547c0-5.815-4.731-10.547-10.547-10.547s-10.547,4.731-10.547,10.547
	C281.725,256.431,286.456,261.163,292.271,261.163z"/>
<g>
</g>
<g>
</g>
<g>
</g>
<g>
</g>
<g>
</g>
<g>
</g>
<g>
</g>
<g>
</g>
<g>
</g>
<g>
</g>
<g>
</g>
<g>
</g>
<g>
</g>
<g>
</g>
<g>
</g>
</svg>
