<?xml version="1.0" encoding="UTF-8"?>
<svg viewBox="0 0 184 162" version="1.1" xmlns="http://www.w3.org/2000/svg" xmlns:xlink="http://www.w3.org/1999/xlink">
    <!-- Generator: Sketch 55.2 (78181) - https://sketchapp.com -->
    <title>Untitled 2</title>
    <desc>Created with Sketch.</desc>
    <defs>
        <linearGradient x1="0.00164869665%" y1="49.9997707%" x2="99.9994352%" y2="49.9997707%" id="SOS-1">
            <stop stop-color="#C7353A" stop-opacity="0.8" offset="0%"></stop>
            <stop stop-color="#C7353A" offset="100%"></stop>
        </linearGradient>
        <linearGradient x1="-0.000880349448%" y1="50.0012207%" x2="99.9971331%" y2="50.0012207%" id="SOS-2">
            <stop stop-color="#5886FA" stop-opacity="0.8" offset="0%"></stop>
            <stop stop-color="#5886FA" offset="100%"></stop>
        </linearGradient>
        <linearGradient x1="-0.000198113634%" y1="50.0009289%" x2="100.000094%" y2="50.0009289%" id="SOS-3">
            <stop stop-color="#5886FA" stop-opacity="0.8" offset="0%"></stop>
            <stop stop-color="#5886FA" offset="100%"></stop>
        </linearGradient>
        <linearGradient x1="0.00240038822%" y1="49.9966473%" x2="100.001102%" y2="49.9966473%" id="SOS-4">
            <stop stop-color="#5886FA" stop-opacity="0.8" offset="0%"></stop>
            <stop stop-color="#5886FA" offset="100%"></stop>
        </linearGradient>
    </defs>
    <g id="Page-1" stroke="none" stroke-width="1" fill="none" fill-rule="evenodd">
        <g id="spark-of-sugar" fill-rule="nonzero">
            <path d="M53.671,117.225 C53.671,117.225 60.211,130.303 64.634,136.073 C69.058,141.843 71.558,144.728 71.751,145.497 C71.943,146.267 69.635,149.536 70.981,150.883 C72.327,152.23 78.29,155.692 81.559,156.46 C84.829,157.23 86.175,155.884 84.252,154.345 C82.329,152.806 79.059,147.998 77.135,144.536 C75.212,141.074 70.788,137.227 69.057,129.342 C67.326,121.457 67.903,117.611 66.172,114.532 C64.441,111.455 58.863,109.339 56.748,111.647 C54.633,113.955 52.902,114.339 53.671,117.225 Z" id="Path" fill="#E28668"></path>
            <path d="M40.4,91.068 C40.4,91.068 35.015,102.608 29.822,108.57 C24.629,114.532 21.359,119.533 18.667,121.649 C15.974,123.764 -0.566,127.61 0.588,128.764 C1.742,129.918 5.973,130.879 11.166,130.495 C16.359,130.11 18.667,128.379 19.052,127.033 C19.436,125.686 18.86,124.148 19.821,123.955 C20.783,123.764 34.246,114.339 40.593,110.684 C46.94,107.031 52.517,97.606 53.671,93.952 C54.825,90.298 52.325,88.566 49.055,87.99 C45.786,87.413 41.939,88.375 40.4,91.068 Z" id="Path" fill="#E28668"></path>
            <polygon id="Path" fill="#E28668" points="102.502 31.937 104.829 37.364 116.201 34.521 111.29 26.509"></polygon>
            <polygon id="Path" fill="#A7CFF8" points="103.019 38.915 103.019 35.813 118.268 32.454 120.853 35.813"></polygon>
            <path d="M128.607,150.827 C128.607,150.827 138.17,148.243 138.945,150.569 C139.72,152.895 135.068,157.548 130.416,159.874 C125.764,162.2 119.044,162.458 121.112,157.548 C123.179,152.636 128.607,150.827 128.607,150.827 Z" id="Path" fill="#906879"></path>
            <path d="M155.486,92.157 C155.486,92.157 149.025,118.262 143.597,125.499 C138.169,132.736 129.382,147.209 129.382,147.984 C129.382,148.759 130.415,149.535 130.415,152.12 C130.415,154.704 127.831,157.806 122.92,158.581 C118.01,159.356 121.887,155.997 122.403,151.345 C122.919,146.693 135.067,111.542 135.067,111.542 C135.067,111.542 144.372,99.911 148.249,96.552 C152.126,93.191 155.486,90.348 155.486,92.157 Z" id="Path" fill="#464473"></path>
            <path d="M107.54,150.827 C107.54,150.827 97.977,148.243 97.202,150.569 C96.427,152.895 101.079,157.548 105.731,159.874 C110.382,162.2 117.103,162.458 115.035,157.548 C112.967,152.636 107.54,150.827 107.54,150.827 Z" id="Path" fill="#906879"></path>
            <path d="M80.66,92.157 C80.66,92.157 87.121,118.262 92.549,125.499 C97.977,132.736 106.764,147.209 106.764,147.984 C106.764,148.759 105.731,149.535 105.731,152.12 C105.731,154.704 108.315,157.806 113.226,158.581 C118.136,159.356 114.259,155.997 113.743,151.345 C113.227,146.693 101.079,111.542 101.079,111.542 C101.079,111.542 91.774,99.911 87.897,96.552 C84.02,93.191 80.66,90.348 80.66,92.157 Z" id="Path" fill="#464473"></path>
            <rect id="Rectangle" fill="#906879" x="25.524" y="111.551" width="157.945" height="10.905"></rect>
            <rect id="Rectangle" fill="#7B4C60" x="25.524" y="118.939" width="157.945" height="3.518"></rect>
            <path d="M135.584,94.742 C135.584,94.742 148.766,84.921 152.643,84.921 C156.52,84.921 157.295,89.573 155.486,93.967 C153.677,98.361 139.979,114.386 136.878,115.677 C133.776,116.97 131.45,117.228 131.45,117.228 C131.45,117.228 125.505,100.945 135.584,94.742 Z" id="Path" fill="#464473"></path>
            <path d="M100.139,94.742 C100.139,94.742 86.958,84.921 83.081,84.921 C79.205,84.921 78.429,89.573 80.238,93.967 C82.047,98.361 95.745,114.386 98.847,115.677 C101.949,116.97 104.275,117.228 104.275,117.228 C104.275,117.228 110.219,100.945 100.139,94.742 Z" id="Path" fill="#464473"></path>
            <path d="M45.786,91.645 C45.786,91.645 45.401,106.647 50.017,111.262 C54.633,115.878 62.518,116.455 70.596,116.071 C78.674,115.686 84.828,112.032 87.521,103.954 C90.213,95.876 88.29,92.03 87.329,88.761 C86.367,85.491 46.363,89.722 46.363,89.722 L45.786,91.645 Z" id="Path" fill="#DC6879"></path>
            <path d="M92.714,42.6 C92.714,42.6 95.022,39.523 94.637,33.753 C94.253,27.983 90.07,23.295 82.954,24.064 C75.837,24.833 74.105,33.802 71.22,35.34 C68.335,36.879 60.787,32.599 51.555,37.792 C42.323,42.985 48.67,49.14 45.785,51.447 C42.9,53.755 35.207,51.447 30.975,56.448 C26.744,61.448 36.168,69.141 34.629,74.527 C33.09,79.913 32.898,89.337 40.014,92.03 C47.13,94.722 52.131,90.299 53.669,93.953 C55.208,97.607 62.901,102.415 69.825,101.069 C76.749,99.723 75.236,95.313 80.788,95.491 C86.34,95.67 92.713,91.837 92.905,86.26 C93.097,80.682 88.096,75.682 90.405,72.605 C92.714,69.526 99.831,52.794 92.714,42.6 Z" id="Path" fill="url(#SOS-1)"></path>
            <path d="M97.591,100.428 C97.591,100.428 96.558,111.283 97.591,113.61 C98.625,115.935 100.176,116.452 107.154,117.487 C114.133,118.52 129.382,117.487 133,116.712 C136.618,115.936 138.169,112.317 138.686,106.89 C139.204,101.462 137.653,99.911 137.653,99.911 L97.591,100.428 Z" id="Path" fill="#464473"></path>
            <path d="M142.822,32.195 C142.822,32.195 144.263,33.971 146.573,37.146 C148.883,40.321 156.387,79.579 157.254,81.889 C158.12,84.198 156.099,86.796 153.213,87.373 C150.326,87.95 134.738,85.063 134.738,85.063 L142.822,32.195 Z" id="Path" fill="url(#SOS-2)"></path>
            <path d="M83.894,41.758 C83.894,41.758 118.527,35.297 125.247,34.004 C131.967,32.711 140.496,30.902 142.822,32.195 C145.148,33.487 143.339,51.579 142.305,62.951 C141.271,74.323 138.169,86.988 138.169,91.381 C138.169,95.776 139.72,98.36 137.652,99.91 C135.584,101.461 125.505,104.046 114.132,104.562 C102.76,105.08 98.365,101.978 97.59,100.427 C96.815,98.876 96.299,95 96.299,95 L86.219,59.591 C86.22,59.592 81.309,45.118 83.894,41.758 Z" id="Path" fill="url(#SOS-3)"></path>
            <path d="M93.973,6.608 C93.973,6.608 92.422,1.439 96.04,1.439 C99.659,1.439 100.176,4.023 101.727,3.248 C103.278,2.473 105.345,-0.112 108.963,0.664 C112.582,1.439 110.773,7.125 112.323,8.417 C113.874,9.709 116.717,9.451 116.2,13.328 C115.683,17.205 112.064,17.722 112.064,18.756 C112.064,19.79 112.582,25.735 111.547,28.319 C110.512,30.903 106.378,32.196 104.311,32.971 C102.243,33.746 94.49,30.387 91.129,27.026 C87.769,23.666 84.926,20.048 86.477,14.62 C88.028,9.192 93.973,6.608 93.973,6.608 Z" id="Path" fill="#464473"></path>
            <rect id="Rectangle" fill="#906879" x="25.524" y="60.193" width="157.945" height="18.292"></rect>
            <path d="M37.486,159.238 C37.313,159.238 37.137,159.218 36.962,159.178 C35.721,158.889 34.948,157.649 35.236,156.407 L43.267,121.84 L43.267,60.896 C43.267,59.621 44.301,58.588 45.575,58.588 C46.849,58.588 47.883,59.621 47.883,60.896 L47.883,122.369 L39.732,157.451 C39.485,158.518 38.536,159.238 37.486,159.238 Z" id="Path" fill="#AE576A"></path>
            <path d="M169.748,159.238 C169.921,159.238 170.097,159.218 170.272,159.178 C171.513,158.889 172.287,157.649 171.999,156.407 L163.968,121.84 L163.968,60.896 C163.968,59.621 162.934,58.588 161.659,58.588 C160.384,58.588 159.351,59.621 159.351,60.896 L159.351,122.369 L167.501,157.451 C167.75,158.518 168.699,159.238 169.748,159.238 Z" id="Path" fill="#AE576A"></path>
            <path d="M50.07,59.809 C50.07,59.809 48.013,57.881 46.214,56.724 C44.414,55.567 43.9,55.824 41.586,56.724 C39.272,57.624 38.115,60.195 38.115,60.195 L42.1,60.195 C42.1,60.195 43.642,61.095 44.928,61.609 C46.214,62.123 47.242,61.994 47.242,61.994 C47.242,61.994 48.142,59.294 50.07,59.809 Z" id="Path" fill="#E28668"></path>
            <path d="M92.939,59.592 L74.33,83.629 C74.33,83.629 72.521,87.247 67.61,85.439 C64.679,84.359 54.17,70.965 52.102,68.38 C50.925,66.909 49.414,65.27 48.329,64.131 C47.5,63.26 47.32,61.961 47.882,60.897 L47.882,60.897 C48.831,59.1 50.81,60.109 50.81,60.109 L68.643,67.605 C68.643,67.605 81.824,42.276 82.858,42.018 C83.892,41.76 90.611,40.726 90.611,40.726" id="Path" fill="url(#SOS-4)"></path>
            <path d="M50.811,60.108 C50.811,60.108 48.832,59.099 47.883,60.896 C47.321,61.959 47.501,63.259 48.33,64.13 C48.562,64.374 48.821,64.65 49.085,64.933 C49.359,63.442 50.33,61.817 52.957,61.011 L50.811,60.108 Z" id="Path" fill="#A7CFF8"></path>
            <path d="M11.166,130.496 C16.359,130.111 18.667,128.38 19.052,127.034 C19.296,126.179 19.155,125.249 19.264,124.633 C18.376,123.409 16.509,123.612 12.717,125.426 C9.056,127.177 6.736,126.251 6.447,126.122 C2.889,127.267 0.09,128.267 0.588,128.765 C1.742,129.918 5.973,130.879 11.166,130.496 Z" id="Path" fill="#464473"></path>
            <path d="M84.252,154.344 C83.721,153.919 83.085,153.24 82.405,152.412 C82.097,152.385 81.759,152.32 81.348,152.162 C79.134,151.31 78.623,149.267 75.898,147.394 C73.173,145.52 71.641,146.201 71.641,146.201 L71.62,146.207 C71.177,147.477 69.899,149.8 70.981,150.882 C72.327,152.229 78.29,155.691 81.559,156.459 C84.829,157.229 86.175,155.883 84.252,154.344 Z" id="Path" fill="#464473"></path>
            <path d="M79.449,27.417 C79.449,27.417 75.03,23.455 74.573,24.979 C74.115,26.503 76.249,30.77 77.316,30.465 C78.382,30.159 79.449,27.417 79.449,27.417 Z" id="Path" fill="#DC6879"></path>
            <path d="M79.449,27.417 C79.449,27.417 78.84,22.084 80.364,22.084 C81.888,22.084 83.869,26.198 83.26,27.417 C82.649,28.635 79.449,27.417 79.449,27.417 Z" id="Path" fill="#DC6879"></path>
        </g>
    </g>
</svg>