<?xml version="1.0" encoding="UTF-8"?>
<svg viewBox="0 0 388 318" version="1.1" xmlns="http://www.w3.org/2000/svg" xmlns:xlink="http://www.w3.org/1999/xlink">
    <!-- Generator: Sketch 55.2 (78181) - https://sketchapp.com -->
    <title>Untitled</title>
    <desc>Created with Sketch.</desc>
    <defs>
        <path d="M44.829,23.107 C32.769,34.219 23.262,48.423 17.018,63.224 C8.222,84.075 4.489,106.686 1.933,129.172 C-6.331,201.858 16.191,285.68 94.298,308.039 C146.691,323.033 203.505,307.678 251.441,285.455 C321.877,252.805 421.138,151.164 338.17,75.605 C293.566,34.985 221.52,50.311 168.789,28.189 C144.086,17.824 120.828,-1.269 92.654,1.006 C74.279,2.489 58.025,10.947 44.829,23.107 Z" id="path-1"></path>
        <radialGradient cx="31.6676017%" cy="49.33326%" fx="31.6676017%" fy="49.33326%" r="124.471228%" gradientTransform="translate(0.316676,0.493333),scale(0.499996,1.000000),translate(-0.316676,-0.493333)" id="radialGradient-3">
            <stop stop-color="#FAF5F7" offset="0%"></stop>
            <stop stop-color="#F9F4F4" offset="3.31%"></stop>
            <stop stop-color="#F2E6D8" offset="37.53%"></stop>
            <stop stop-color="#EFE1CE" offset="57.47%"></stop>
            <stop stop-color="#D3EBF7" offset="99.62%"></stop>
        </radialGradient>
        <radialGradient cx="33.0007506%" cy="-3.66269489%" fx="33.0007506%" fy="-3.66269489%" r="155.589482%" gradientTransform="translate(0.330008,-0.036627),scale(0.273660,1.000000),translate(-0.330008,0.036627)" id="radialGradient-4">
            <stop stop-color="#F4E1BF" offset="0%"></stop>
            <stop stop-color="#BDD8BE" offset="100%"></stop>
        </radialGradient>
        <linearGradient x1="-5.53289119e-05%" y1="49.9999276%" x2="99.9999262%" y2="49.9999276%" id="linearGradient-5">
            <stop stop-color="#F9D7AD" offset="0.38%"></stop>
            <stop stop-color="#E0B788" offset="100%"></stop>
        </linearGradient>
        <linearGradient x1="49.9998848%" y1="-11.5515114%" x2="49.9998848%" y2="483.254566%" id="linearGradient-6">
            <stop stop-color="#FFFFFF" offset="0.38%"></stop>
            <stop stop-color="#ECF6F5" offset="12.26%"></stop>
            <stop stop-color="#CEE8E4" offset="35.58%"></stop>
            <stop stop-color="#B8DED8" offset="58.37%"></stop>
            <stop stop-color="#AAD8D0" offset="80.2%"></stop>
            <stop stop-color="#A6D6CE" offset="100%"></stop>
        </linearGradient>
        <linearGradient x1="50.0000283%" y1="4.90208838%" x2="50%" y2="353.701532%" id="linearGradient-7">
            <stop stop-color="#FFFFFF" offset="0.38%"></stop>
            <stop stop-color="#ECF6F5" offset="12.26%"></stop>
            <stop stop-color="#CEE8E4" offset="35.58%"></stop>
            <stop stop-color="#B8DED8" offset="58.37%"></stop>
            <stop stop-color="#AAD8D0" offset="80.2%"></stop>
            <stop stop-color="#A6D6CE" offset="100%"></stop>
        </linearGradient>
        <linearGradient x1="49.9999702%" y1="58.0027876%" x2="49.9999702%" y2="-32.4792051%" id="linearGradient-8">
            <stop stop-color="#FFFFFF" offset="0.38%"></stop>
            <stop stop-color="#ECF6F5" offset="12.26%"></stop>
            <stop stop-color="#CEE8E4" offset="35.58%"></stop>
            <stop stop-color="#B8DED8" offset="58.37%"></stop>
            <stop stop-color="#AAD8D0" offset="80.2%"></stop>
            <stop stop-color="#A6D6CE" offset="100%"></stop>
        </linearGradient>
        <linearGradient x1="49.9998961%" y1="57.9996241%" x2="49.9998961%" y2="-32.4824961%" id="linearGradient-9">
            <stop stop-color="#FFFFFF" offset="0.38%"></stop>
            <stop stop-color="#ECF6F5" offset="12.26%"></stop>
            <stop stop-color="#CEE8E4" offset="35.58%"></stop>
            <stop stop-color="#B8DED8" offset="58.37%"></stop>
            <stop stop-color="#AAD8D0" offset="80.2%"></stop>
            <stop stop-color="#A6D6CE" offset="100%"></stop>
        </linearGradient>
        <linearGradient x1="0%" y1="49.9996895%" x2="99.9998028%" y2="49.9996895%" id="linearGradient-10">
            <stop stop-color="#D0D8BE" offset="0.38%"></stop>
            <stop stop-color="#F4E1ED" offset="100%"></stop>
        </linearGradient>
        <linearGradient x1="0.000113112381%" y1="49.9999293%" x2="99.9999008%" y2="49.9999293%" id="linearGradient-11">
            <stop stop-color="#3588FF" stop-opacity="0.8" offset="0%"></stop>
            <stop stop-color="#3588FF" offset="100%"></stop>
        </linearGradient>
        <linearGradient x1="0%" y1="49.999665%" x2="100.000074%" y2="49.999665%" id="linearGradient-12">
            <stop stop-color="#E83237" stop-opacity="0.8" offset="0%"></stop>
            <stop stop-color="#E83237" offset="100%"></stop>
        </linearGradient>
        <linearGradient x1="0%" y1="50.0015706%" x2="100%" y2="50.0015706%" id="linearGradient-13">
            <stop stop-color="#E83237" stop-opacity="0.8" offset="0%"></stop>
            <stop stop-color="#E83237" offset="100%"></stop>
        </linearGradient>
        <linearGradient x1="71.1618047%" y1="-51.6769178%" x2="38.3165627%" y2="70.8383553%" id="linearGradient-14">
            <stop stop-color="#FA3361" offset="11.08%"></stop>
            <stop stop-color="#000000" offset="100%"></stop>
        </linearGradient>
        <linearGradient x1="12.8533891%" y1="-150.576396%" x2="57.6431771%" y2="63.8290431%" id="linearGradient-15">
            <stop stop-color="#FA3361" offset="11.08%"></stop>
            <stop stop-color="#000000" offset="100%"></stop>
        </linearGradient>
        <linearGradient x1="126.033958%" y1="6.07103134%" x2="35.6137309%" y2="58.3139535%" id="linearGradient-16">
            <stop stop-color="#FA3361" offset="11.08%"></stop>
            <stop stop-color="#000000" offset="100%"></stop>
        </linearGradient>
        <linearGradient x1="106.766933%" y1="17.8637938%" x2="7.1060799%" y2="74.2947287%" id="linearGradient-17">
            <stop stop-color="#FA3361" offset="11.08%"></stop>
            <stop stop-color="#000000" offset="100%"></stop>
        </linearGradient>
        <linearGradient x1="38.4909784%" y1="71.2789046%" x2="50.4363664%" y2="51.0754743%" id="linearGradient-18">
            <stop stop-color="#FFCAB0" offset="0%"></stop>
            <stop stop-color="#FFE0D0" offset="27.27%"></stop>
            <stop stop-color="#FFF1EA" offset="55%"></stop>
            <stop stop-color="#FFFBFA" offset="80.09%"></stop>
            <stop stop-color="#FFFFFF" offset="100%"></stop>
        </linearGradient>
        <linearGradient x1="48.4922681%" y1="33.0680709%" x2="50.0056384%" y2="59.1472887%" id="linearGradient-19">
            <stop stop-color="#FFCAB0" offset="0%"></stop>
            <stop stop-color="#FFE0D0" offset="27.27%"></stop>
            <stop stop-color="#FFF1EA" offset="55%"></stop>
            <stop stop-color="#FFFBFA" offset="80.09%"></stop>
            <stop stop-color="#FFFFFF" offset="100%"></stop>
        </linearGradient>
        <linearGradient x1="55.9376732%" y1="90.5990392%" x2="25.856604%" y2="10.7691952%" id="linearGradient-20">
            <stop stop-color="#FFFFFF" offset="0%"></stop>
            <stop stop-color="#FFFBFA" offset="19.91%"></stop>
            <stop stop-color="#FFF1EA" offset="45%"></stop>
            <stop stop-color="#FFE0D0" offset="72.73%"></stop>
            <stop stop-color="#FFCAB0" offset="100%"></stop>
        </linearGradient>
        <linearGradient x1="62.3213551%" y1="70.4709733%" x2="49.8429392%" y2="50.6756018%" id="linearGradient-21">
            <stop stop-color="#FF9A67" offset="0%"></stop>
            <stop stop-color="#FFBD95" offset="99.23%"></stop>
        </linearGradient>
    </defs>
    <g id="Page-1" stroke="none" stroke-width="1" fill="none" fill-rule="evenodd">
        <g id="sugar_relatioships_work">
            <g id="Clipped" transform="translate(9.000000, 0.000000)">
                <mask id="mask-2" fill="white">
                    <use xlink:href="#path-1"></use>
                </mask>
                <g id="SVGID_1_"></g>
                <g id="Group" mask="url(#mask-2)">
                    <g transform="translate(-185.000000, -4.000000)">
                        <rect id="Rectangle" fill="url(#radialGradient-3)" fill-rule="nonzero" x="0" y="0.362" width="654.143" height="327.069"></rect>
                        <rect id="Rectangle" fill="url(#radialGradient-4)" fill-rule="nonzero" x="0" y="148.419" width="654.143" height="179.013"></rect>
                        <polygon id="Path" fill="url(#linearGradient-5)" fill-rule="nonzero" points="111.931 327.432 654.143 189.285 654.143 327.432"></polygon>
                        <g id="Group" stroke-width="1" fill="none" fill-rule="evenodd" transform="translate(0.000000, 31.000000)">
                            <path d="M0,56.577 C0,56.577 20.703,43.716 37.353,43.716 C54.001,43.716 67.122,60.478 76.749,60.478 C86.377,60.478 127.503,47.349 153.277,68.476 C172.057,83.87 177.529,96.132 191.96,95.956 C217.028,95.65 253.904,102.938 260.358,118.282 L0,118.282 L0,56.577 Z" id="Path" fill="url(#linearGradient-6)" fill-rule="nonzero"></path>
                            <path d="M300.645,117.022 C302.36,95.974 389.241,102.102 396.046,94.791 C402.855,87.478 432.365,79.362 443.318,75.882 C454.27,72.402 486.112,85.759 493.068,75.882 C513.045,47.516 547.773,60.125 547.773,60.125 C547.773,60.125 556.584,23.011 589.287,9.311 C625.252,-5.754 654.142,4.016 654.142,4.016 L654.142,116.75 L300.645,117.022 Z" id="Path" fill="url(#linearGradient-7)" fill-rule="nonzero"></path>
                        </g>
                        <path d="M396.333,149.084 C396.333,149.084 437.063,139.375 445.64,138.185 C454.217,136.993 480.483,138.782 487.084,138.782 C493.688,138.782 512.105,136.396 518.685,135.203 C525.262,134.011 544.995,128.644 550.258,129.24 C555.519,129.838 654.143,123.875 654.143,123.875 L654.143,149.085 L396.333,149.085 L396.333,149.084 Z" id="Path" fill="#ADBDCD" fill-rule="nonzero"></path>
                        <g id="Group" stroke-width="1" fill="none" fill-rule="evenodd" transform="translate(0.000000, 159.000000)">
                            <polygon id="Path" fill="url(#linearGradient-8)" fill-rule="nonzero" opacity="0.3" points="0 32.082 335.546 44.823 0 54.323"></polygon>
                            <path d="M654.143,0.787 C654.143,0.787 133.916,22.875 135.723277,21.065 C137.538,19.255 654.143,22.068 654.143,22.068 L654.143,0.787 Z" id="Path" fill="url(#linearGradient-9)" fill-rule="nonzero" opacity="0.3"></path>
                            <path d="M309.458,36.604 C309.458,36.604 457.726,42.418 465.481,39.509 C473.235,36.604 514.006,44.857 514.006,44.857 C521.754,44.305 585.648,52.798 602.609,48.335 C619.567,43.871 644.004,40.446 644.004,40.446 L654.143,30.285 C654.143,30.285 635.573,36.553 629.272,36.553 C622.972,36.553 601.262,35.956 592.057,38.999 C582.848,42.041 567.238,34.997 557.061,34.997 C546.885,34.997 481.957,31.275 478.564,31.275 C475.171,31.275 423.774,35.852 411.438,35.852 C399.099,35.853 309.458,36.604 309.458,36.604 Z" id="Path" fill="#FFFFFF" fill-rule="nonzero"></path>
                            <path d="M40.923,142.586 C40.923,142.586 231.236,136.156 250.754,132.728 C270.272,129.295 302.359,126.022 311.807,126.022 C321.257,126.022 400.786,113.876 430.392,109.002 C459.998,104.13 489.185,90.671 501.524,86.306 C513.866,81.941 509.065,62.211 499.852,61.451 C415.581,54.484 332.068,58.453 260.358,72.223 C201.356,83.55 38.237,73.557 0,86.306 L40.923,142.586 Z" id="Path" fill="url(#linearGradient-10)" fill-rule="nonzero" opacity="0.5"></path>
                            <path d="M40.923,142.586 C40.923,142.586 235.038,140.534 239.448,140.247 C243.859,139.962 265.095,138.579 265.095,138.579 C265.095,138.579 273.434,135.789 281.351,134.501 C289.268,133.213 346.942,127.242 350.428,126.784 C452.084,113.428 501.523,86.305 501.523,86.305 C501.523,86.305 422.041,114.513 350.61,120.078 C345.888,120.444 314.77,122.405 309.188,122.769 C303.604,123.133 265.404,130.346 262.681,130.523 C259.957,130.7 40.923,142.586 40.923,142.586 Z" id="Path" fill="#FFFFFF" fill-rule="nonzero"></path>
                            <path d="M0,93.142 C0,93.142 39.621,97.67 46.929,97.67 C54.239,97.67 63.91,93.317 66.914,93.317 C69.919,93.317 76.536,88.608 82.188,88.608 C87.839,88.608 146.004,99.629 212.268,91.712 C223.49,90.37 256.214,83.961 260.357,83.961 C264.5,83.961 284.438,69.645 284.438,69.645 C284.438,69.645 251.303,77.471 223.897,80.902 C111.6,94.963 93.307,84.815 77.044,84.815 C67.352,84.815 52.41,90.591 41.957,90.591 C31.503,90.592 0,93.142 0,93.142 Z" id="Path" fill="#FFFFFF" fill-rule="nonzero"></path>
                            <path d="M55.43,59.093 C55.43,59.093 279.334,69.645 284.439,69.645 C289.542,69.645 314.127,69.645 314.127,69.645 C314.127,69.645 323.946,67.401 333.169,66.63 C342.392,65.856 409.309,63.411 413.368,63.411 C417.431,63.411 518.673,53.254 518.673,53.254 C518.673,53.254 419.553,56.732 414.081,56.732 C408.611,56.732 372.6,56.732 366.135,56.732 C359.671,56.732 315.1,61.451 311.946,61.451 C308.795,61.45 55.43,59.093 55.43,59.093 Z" id="Path" fill="#FFFFFF" fill-rule="nonzero"></path>
                        </g>
                    </g>
                </g>
            </g>
            <g id="Group" transform="translate(0.000000, 67.000000)" fill-rule="nonzero">
                <path d="M319.676,27.348 C319.676,27.348 324.792,18.119 336.287,21.49 C347.779,24.861 345.401,41.531 349.015,48.017 C352.638,54.501 354.891,53.325 357.234,62.619 C359.575,71.912 346.006,73.587 347.39,84.792 C348.774,96.002 354.619,93.411 355.516,100.672 C356.413,107.934 345.202,108.205 350.629,115.832 C356.049,123.464 365.364,121.198 369.999,124.82 C374.642,128.439 368.653,138.159 368.653,138.159 C368.653,138.159 331.165,130.215 327.702,120.461 C324.245,110.706 321.075,66.785 320.747,64.13 C320.419,61.475 319.676,27.348 319.676,27.348 Z" id="Path" fill="#5E3450"></path>
                <path d="M109.153,122.004 C109.153,122.004 143.666,119.667 157.666,168.333 C171.666,217 178.729,245.741 178.729,245.741 L178.729,186.494 L201.641,180.489 L215,247.972 L138.333,247.972 L109.153,122.004 Z" id="Path" fill="#2E81E5"></path>
                <path d="M292.964,130.726 C287.602,131.937 279.446,134.713 273.545,141.802 C269.616,146.521 268.223,151.308 266.939,157.389 C265.867,147.847 264.906,139.965 264.376,135.703 L264.376,135.703 L270.65,129.398 C272.447,131.859 274.754,132.037 274.754,132.037 L272.533,127.505 L278.457,121.552 L279.642,121.926 C280.018,123.036 280.401,124.006 280.781,124.826 C280.611,129.527 282.168,130.725 282.168,130.725 L282.586,127.883 C283.962,129.653 285.001,129.833 285.001,129.833 L283.045,124.765 L283.293,123.078 L283.571,123.166 C283.785,123.363 283.994,123.534 284.204,123.708 C286.633,130.03 289.501,129.832 289.501,129.832 L287.805,125.81 C290.555,126.733 292.389,125.832 292.389,125.832 L286.173,121.942 L284.733,118.527 L266.252,113.501 L251.934,133.575 C251.934,133.575 235.611,227.438 261.327,247.74 C261.327,247.74 262.326,247.358 263.789,246.061 C268.843,244.387 274.936,232.543 277.721,227.13 C286.274,210.493 297.47,179.86 292.964,130.726 Z" id="Path" fill="#F8BEBC"></path>
                <path d="M56.867,121.584 C56.867,121.584 26.177,127.528 11.749,143.598 C-2.678,159.668 25,245.741 25,245.741 L146.956,246.269 C146.956,246.269 152.633,140.849 131.119,129.245 C109.604,117.64 85.573,121.584 85.573,121.584 L56.867,121.584 Z" id="Path" fill="url(#linearGradient-11)"></path>
                <polygon id="Path" fill="#522643" points="102.205 154.022 100.165 218.897 109.421 246.184 117.959 246.184 125.211 218.482 105.679 150.886"></polygon>
                <polygon id="Path" fill="#F8C2BE" points="294.574 102 292.388 141 331 141 322.121 84.206"></polygon>
                <path d="M375.104,246.202 C375.104,246.202 381,146.074 350,132.037 C319,118 333.029,136 306.515,141 C306.515,141 292.844,140.417 292.388,126.787 L268.792,208 L286.615,246.202 L375.104,246.202 Z" id="Path" fill="url(#linearGradient-12)"></path>
                <path d="M268.792,208 L319.352,210.5 C319.352,210.5 333.5,242.404 361.5,246.202 L286.615,246.202 L268.792,208 Z" id="Path" fill="url(#linearGradient-13)"></path>
                <path d="M356.203,146 C360.258,154.265 365.609,167.717 367,185 C368.237,200.386 369.383,214.623 360,226 C348.742,239.65 340.941,229.539 336.167,229.5 L356.203,146 Z" id="Path" fill="#F8BEBC"></path>
                <path d="M331,227 C331,227 314.401,132.074 343.701,132.036991 C373,132 350,246.202 350,246.202 L274,246.202 L274,240.002 L331,227 Z" id="Path" fill="#FAE1E1"></path>
                <path d="M276,240.002 L257.252,232.333 L240.333,238 L230,246.202 C230,246.202 239,247.338 243.333,240.002 C243.333,240.002 252,242 257,236.333 C257,236.333 257.667,246.202 274,246.202 C274,246.202 278.754,244.66 276,240.002 Z" id="Path" fill="#FAE1E1"></path>
                <path d="M257,236.333 L241,240.002 L235.333,246.27 C235.333,246.27 250.333,243.667 257,236.333 Z" id="Path" fill="#FAE1E1"></path>
                <path d="M267.679,241.302 C267.679,241.302 250.667,240.338 249.333,246.27 L274,246.202 L267.679,241.302 Z" id="Path" fill="#FAE1E1"></path>
                <path d="M257,236.333 L243.333,246.27 C243.333,246.27 254.667,245.599 261.667,239.3 C268.667,233 257,236.333 257,236.333 Z" id="Path" fill="#FAE1E1"></path>
                <path d="M85.996,71.088 C85.996,71.088 79.935,52.807 70.366,59.113 C60.796,65.418 60.187,88.884 68.331,95.312 C76.477,101.742 85.996,71.088 85.996,71.088 Z" id="Path" fill="#F8BEBC"></path>
                <polygon id="Path" fill="#F8BEBC" points="70.154 60.416 56.867 121.584 102.205 129.245 102.205 78.483"></polygon>
                <path d="M59.478,109.564 L102.205,129.245 L91.615,144.613 C91.615,144.613 49.641,128.071 52.111,119.556 C54.58,111.041 59.478,109.564 59.478,109.564 Z" id="Path" fill="#2E81E5"></path>
                <polygon id="Path" fill="#2E81E5" points="102.205 129.245 109.153 139.688 107.787 129.245 102.205 114.873"></polygon>
                <path d="M102.205,129.245 L109.154,139.687 C109.154,139.687 111.79,154.022 105.68,157.472 C99.569,160.921 91.616,144.613 91.616,144.613 L102.205,129.245 Z" id="Path" fill="#522643"></path>
                <ellipse id="Oval" fill="#683058" cx="103.204" cy="143.613" rx="6.078" ry="8.28"></ellipse>
                <polygon id="Path" fill="#F8BEBC" points="201.641 180.489 178.729 146 164.629 176 178.729 186.494"></polygon>
                <g transform="translate(144.000000, 114.000000)" id="Path">
                    <path d="M23.667,62.076 L23.667,43.246 C23.667,39.025 25.901,35.203 29.404,32.848 C35.921,28.464 40.4,19.351 40.4,8.818 C40.4,5.894 40.05,3.083 39.412,0.449 L1.849,0.449 C1.211,3.083 0.861,5.894 0.861,8.818 C0.861,19.529 5.494,28.768 12.191,33.06 C15.775,35.357 18.078,39.19 18.078,43.447 L18.078,62.081 C11.803,62.44 7.088,63.97 7.088,65.803 C7.088,67.903 13.276,69.606 20.909,69.606 C28.542,69.606 34.73,67.903 34.73,65.803 C34.729,63.962 29.978,62.428 23.667,62.076 Z" fill="#F59BA1"></path>
                    <path d="M4.721,2.331 C4.18,4.67 3.884,7.166 3.884,9.762 C3.884,22.906 11.381,33.562 20.629,33.562 C29.878,33.562 37.375,22.906 37.375,9.762 C37.375,7.166 37.079,4.67 36.538,2.331 L4.721,2.331 Z" fill="#C1304C"></path>
                    <path d="M4.721,2.331 C4.18,4.67 3.884,7.166 3.884,9.762 C3.884,22.906 11.381,33.562 20.629,33.562 C29.878,33.562 37.375,22.906 37.375,9.762 C37.375,7.166 37.079,4.67 36.538,2.331 L4.721,2.331 Z" fill="url(#linearGradient-14)"></path>
                </g>
                <g transform="translate(210.000000, 180.000000)" id="Path">
                    <path d="M23.037,62.25 L23.037,43.42 C23.037,39.198 25.271,35.377 28.773,33.021 C35.29,28.638 39.769,19.524 39.769,8.992 C39.769,6.068 39.419,3.257 38.781,0.622 L1.218,0.622 C0.579,3.257 0.23,6.068 0.23,8.992 C0.23,19.703 4.863,28.941 11.56,33.233 C15.143,35.53 17.447,39.364 17.447,43.62 L17.447,62.255 C11.172,62.614 6.457,64.144 6.457,65.977 C6.457,68.077 12.645,69.779 20.278,69.779 C27.911,69.779 34.099,68.077 34.099,65.977 C34.1,64.136 29.349,62.602 23.037,62.25 Z" fill="#F59BA1"></path>
                    <path d="M4.092,2.505 C3.551,4.844 3.255,7.339 3.255,9.935 C3.255,23.08 10.752,33.735 20,33.735 C29.248,33.735 36.745,23.08 36.745,9.935 C36.745,7.339 36.449,4.844 35.908,2.505 L4.092,2.505 Z" fill="#C1304C"></path>
                    <path d="M4.092,2.505 C3.551,4.844 3.255,7.339 3.255,9.935 C3.255,23.08 10.752,33.735 20,33.735 C29.248,33.735 36.745,23.08 36.745,9.935 C36.745,7.339 36.449,4.844 35.908,2.505 L4.092,2.505 Z" fill="url(#linearGradient-15)"></path>
                </g>
                <polygon id="Path" fill="#F8BEBC" points="178.729 146 153.701 151.894 162.077 176.08 178.729 176.08"></polygon>
                <path d="M384.931,250.202 L3.069,250.202 C1.837,250.202 0.839,249.203 0.839,247.972 L0.839,247.972 C0.839,246.74 1.838,245.742 3.069,245.742 L384.931,245.742 C386.163,245.742 387.161,246.74 387.161,247.972 L387.161,247.972 C387.161,249.203 386.163,250.202 384.931,250.202 Z" id="Path" fill="#F17A84"></path>
                <g transform="translate(37.000000, 129.000000)" fill="#441D3A">
                    <path d="M44.536,117.27 L0.667,117.27 L3.421,57.158 C3.932,46.005 12.368,37.248 22.602,37.248 L22.602,37.248 C32.836,37.248 41.272,46.005 41.783,57.158 L44.536,117.27 Z" id="Path"></path>
                    <rect id="Rectangle" x="16.729" y="3.037" width="11.745" height="48.584"></rect>
                    <rect id="Rectangle" x="15.005" y="0.245" width="14.96" height="12.995"></rect>
                </g>
                <polygon id="Path" fill="#F8BEBC" points="80.658 227.101 38.545 227.101 40.107 192.989 79.095 192.989"></polygon>
                <ellipse id="Oval" fill="url(#linearGradient-16)" cx="62.567" cy="190.265" rx="14.538" ry="19.78"></ellipse>
                <rect id="Rectangle" fill="#E59E9E" x="43.433" y="198.12" width="32.105" height="4.069"></rect>
                <rect id="Rectangle" fill="#E59E9E" x="43.433" y="206.259" width="32.105" height="4.069"></rect>
                <rect id="Rectangle" fill="#E59E9E" x="43.549" y="213.981" width="32.105" height="10.352"></rect>
                <rect id="Rectangle" fill="url(#linearGradient-17)" x="56.867" y="129.245" width="10.098" height="12.995"></rect>
                <path d="M323.101,63.503 C325.789,85.28 306.708,107.628 292.304,109.406 C285.08,110.298 273.623,91.72 270.935,69.944 C268.247,48.17 277.741,29.072 292.145,27.294 C306.551,25.516 320.412,41.729 323.101,63.503 Z" id="Path" fill="#F8BEBC"></path>
                <path d="M274.108886,43.385 C274.108886,43.385 273.917,31.063 289.283,22.125 C302.308,14.556 318.143,22.623 324.374,27.485 C330.609,32.348 336.991,61.746 334.697,67.42 C332.403,73.095 328.65,79.453 328.65,79.453 C328.65,79.453 324.278,74.996 322.35,75.234 C320.424,75.471 319.555,64.746 314.453,64.055 C309.345,63.365 289.082,39.664 274.108886,43.385 Z" id="Path" fill="#5E3450"></path>
                <g transform="translate(270.000000, 61.000000)" id="Path">
                    <path d="M9.601,3.074 C9.601,3.074 11.697,7.715 11.707,15.803 C11.714,21.306 9.759,26.797 10.866,27.988 C11.974,29.182 18.255,28.549 18.812,27.675 C20.096,25.663 12.707,10.933 16.267,3.045 C18.091,-0.992 10.775,1.84 9.601,3.074 Z" fill="url(#linearGradient-18)"></path>
                    <path d="M26.524,32.327 C26.524,32.327 22.716,35.631 17.505,36.295 C13.368,36.827 10.553,33.525 10.553,33.525 L26.524,32.327 Z" fill="#FFFFFF"></path>
                    <path d="M27.186,1.701 C33.57,2.381 36.59,9.448 36.59,9.448 L14.6309805,12.805 C14.6309805,12.806 14.538,0.349 27.186,1.701 Z" fill="url(#linearGradient-19)"></path>
                    <path d="M0.763,3.521 C0.828,6.897 1.127,10.16 1.617,13.29 L12.336,12.344 C12.336,12.343 10.069,0.42 0.763,3.521 Z" fill="url(#linearGradient-20)"></path>
                    <path d="M32.12,10.864 C32.12,10.864 26.497,9.254 23.482,8.865 C21.086,8.556 18.762,8.864 18.762,8.864 L20.074,10.7 L19.759,12.355 C19.759,12.355 24.189,11.062 32.12,10.864 Z" fill="#9F5C44"></path>
                    <path d="M9.027,12.099 C7.987,11.497 6.817,10.921 4.303,10.139 C1.98,9.42 0.245,9.42 0.245,9.42 L1.358,11.549 L1.183,12.929 C1.185,12.929 3.339,12.182 9.027,12.099 Z" fill="#9F5C44"></path>
                </g>
                <path d="M60.2,53.43 C57.033,79.446 88.865,103.307 100.292,104.737 C114.135,106.464 125.054,87.075 128.218,61.059 C131.383,35.047 121.539,11.294 100.97,9.223 C78.697,6.981 63.367,27.418 60.2,53.43 Z" id="Path" fill="#F8BEBC"></path>
                <path d="M126.366,34.298 C126.366,34.298 130.269,15.626 127.316,12.224 C124.363,8.827 101.726,0.605 91.796,0.961 C80.6,1.362 61.232,13.68 56.153,22.274 C49.278,33.902 56.783,64.404 57.914,68.789 C59.038,73.176 61.347,82.246 61.347,82.246 C61.347,82.246 64.43,79.715 65.422,73.703 C66.964,64.408 67.083,50.057 70.788,49.105 C76.879,47.539 80.076,62.449 80.076,62.449 C80.076,62.449 80.336,42.676 87.057,33.334 C92.249,26.117 109.565,37.41 114.39,38.417 C117.56,39.076 126.366,34.298 126.366,34.298 Z" id="Path" fill="#282637"></path>
                <path d="M127.315,12.224 C127.255,12.157 127.141,12.078 127.068,12.008 C120.904,6.982 97.101,0.269 91.795,0.961 C85.713,1.759 105.46,9.574 89.569,12.55 C80.958,14.162 82.493,43.104 82.493,43.104 L82.766,43.104 C83.777,39.471 85.148,35.981 87.054,33.334 C92.246,26.117 109.562,37.41 114.387,38.417 C117.558,39.076 126.364,34.298 126.364,34.298 C126.364,34.298 130.269,15.626 127.315,12.224 Z" id="Path" fill="#282637"></path>
                <path d="M117.309,57.479 C117.309,57.479 115.24,62.235 115.555,70.424 C115.764,76 118.087,81.51 116.937,82.742 C115.793,83.978 108.832,82.783 108.2,81.914 C106.743,79.912 114.284,65.521 110.141,57.627 C108.027,53.588 116,56.262 117.309,57.479 Z" id="Path" fill="url(#linearGradient-21)"></path>
                <polygon id="Path" fill="#974F35" points="90.354 51.275 93.911 48.4 109.01 50.418 107.994 55.209"></polygon>
                <polygon id="Path" fill="#974F35" points="131.324 54.443 128.246 51.064 118.931 51.033 119.21 55.92"></polygon>
                <path d="M98.638,85.361 C98.638,85.361 101.683,90.369 107.089,92.004 C112.501,93.637 115.879,87.779 115.879,87.779 L98.638,85.361 Z" id="Path" fill="#FFFFFF"></path>
                <path d="M91.377,59.357 C91.377,59.357 98.18,60.521 100.659,60.437 C103.134,60.351 104.989,60.265 104.989,60.265 L103.413,61.828 L103.518,63.467 C103.519,63.467 97.701,63.564 91.377,59.357 Z" id="Path" fill="#9F5C44"></path>
                <path d="M117.582,63.428 C118.567,63.319 120.832,63.096 123.419,62.649 C125.861,62.227 127.72,61.137 127.72,61.137 L126.55,63.172 L126.711,64.516 C126.712,64.516 122.939,65.234 117.582,63.428 Z" id="Path" fill="#9F5C44"></path>
                <path d="M315.123,68.971 C315.123,68.971 330.583,48.619 329.123,68.971 C327.663,89.323 315.123,85.971 315.123,85.971 L315.123,68.971 Z" id="Path" fill="#F8BEBC"></path>
            </g>
        </g>
    </g>
</svg>