<?xml version="1.0" encoding="iso-8859-1"?>
<svg version="1.1" id=" " xmlns="http://www.w3.org/2000/svg" xmlns:xlink="http://www.w3.org/1999/xlink" x="0px" y="0px"
	 viewBox="0 0 512.001 512.001" style="enable-background:new 0 0 512.001 512.001;" xml:space="preserve">
<circle style="fill:#85DD98;" cx="89.988" cy="421.976" r="79.989"/>
<circle style="fill:#FFC096;" cx="89.986" cy="421.976" r="31.997"/>
<path style="fill:#FC5271;" d="M33.018,475.453v-2.824c0-11.98,8.538-22.258,20.315-24.454l14.435-2.692l44.381-0.01l14.49,2.703
	c11.777,2.197,20.315,12.475,20.315,24.454v2.824c0,0-14.59,26.585-56.968,26.585S33.018,475.453,33.018,475.453z"/>
<circle style="fill:#85DD98;" cx="422.015" cy="421.976" r="79.989"/>
<circle style="fill:#FFC096;" cx="422.005" cy="421.976" r="31.997"/>
<path style="fill:#34D4E0;" d="M365.041,475.453v-2.824c0-11.98,8.538-22.258,20.315-24.454l14.435-2.692l44.381-0.01l14.49,2.703
	c11.777,2.197,20.315,12.475,20.315,24.454v2.824c0,0-14.59,26.585-56.968,26.585S365.041,475.453,365.041,475.453z"/>
<circle style="fill:#85DD98;" cx="89.988" cy="90.023" r="79.989"/>
<circle style="fill:#FFC096;" cx="89.986" cy="90.023" r="31.997"/>
<path style="fill:#34D4E0;" d="M33.018,143.504v-2.824c0-11.98,8.538-22.258,20.315-24.454l14.435-2.692l44.381-0.01l14.49,2.703
	c11.777,2.197,20.315,12.475,20.315,24.454v2.824c0,0-14.59,26.585-56.968,26.585S33.018,143.504,33.018,143.504z"/>
<circle style="fill:#85DD98;" cx="422.015" cy="90.023" r="79.989"/>
<circle style="fill:#FFC096;" cx="422.005" cy="90.023" r="31.997"/>
<path style="fill:#FC5271;" d="M365.041,143.504v-2.824c0-11.98,8.538-22.258,20.315-24.454l14.435-2.692l44.381-0.01l14.49,2.703
	c11.777,2.197,20.315,12.475,20.315,24.454v2.824c0,0-14.59,26.585-56.968,26.585S365.041,143.504,365.041,143.504z"/>
<circle style="fill:#34D4E0;" cx="255.968" cy="256.049" r="118.99"/>
<path style="fill:#FC5271;" d="M287.107,202.074c-12.263,0-23.322,5.335-31.134,13.884c-7.812-8.549-18.871-13.884-31.134-13.884
	c-23.67,0-42.859,19.87-42.859,44.382c0,41.319,73.994,81.624,73.994,81.624s73.994-40.306,73.994-81.624
	C329.966,221.944,310.777,202.074,287.107,202.074z"/>
<path d="M224.837,192.075c-29.146,0-52.859,24.395-52.859,54.381c0,20.266,13.673,41.806,40.638,64.024
	c19.016,15.668,37.783,25.952,38.572,26.382c1.491,0.812,3.138,1.218,4.784,1.218s3.292-0.406,4.784-1.218
	c0.79-0.43,19.555-10.713,38.572-26.382c26.965-22.217,40.638-43.758,40.638-64.024c0-29.985-23.712-54.381-52.859-54.381
	c-11.222,0-22.153,3.729-31.134,10.447C246.991,195.804,236.059,192.075,224.837,192.075z M287.107,212.073
	c18.119,0,32.86,15.424,32.86,34.383c0,26.785-42.485,57.412-63.995,70.119c-21.514-12.71-63.995-43.335-63.995-70.119
	c0-18.958,14.741-34.383,32.86-34.383c9.053,0,17.49,3.775,23.753,10.63c1.895,2.073,4.574,3.254,7.381,3.254
	c2.808,0,5.488-1.181,7.381-3.254C269.617,215.848,278.054,212.073,287.107,212.073z"/>
<path d="M255.644,147.061c0.015,0,0.031,0,0.046,0h0.283c5.523,0,9.999-4.477,9.999-9.999c0-5.523-4.477-9.999-9.999-9.999H255.6
	c-5.522,0.025-9.979,4.522-9.954,10.044C245.67,142.614,250.142,147.061,255.644,147.061z"/>
<path d="M422.011,331.986c-21.244,0-40.79,7.404-56.2,19.762l-11.879-11.879c19.332-22.561,31.028-51.849,31.028-83.819
	c0-31.666-11.409-61.16-30.931-83.959l11.813-11.813c15.406,12.342,34.938,19.736,56.168,19.736
	c49.621,0,89.989-40.37,89.989-89.989S471.631,0.038,422.011,0.038c-49.62,0-89.988,40.369-89.988,89.988
	c0,21.201,7.374,40.71,19.686,56.105L339.88,157.96c-12.668-10.818-27.581-19.295-44.192-24.666
	c-5.255-1.699-10.892,1.184-12.59,6.438c-1.699,5.255,1.184,10.891,6.438,12.59c16.416,5.308,30.857,14.215,42.606,25.671
	c0.263,0.342,0.542,0.676,0.856,0.99c0.32,0.32,0.661,0.604,1.012,0.872c19.415,19.873,30.953,46.932,30.953,76.196
	c0,60.098-48.893,108.991-108.991,108.991s-108.991-48.893-108.991-108.991c0-29.371,11.725-56.649,31.403-76.599
	c0.175-0.153,0.353-0.303,0.52-0.47c0.114-0.114,0.214-0.237,0.321-0.355c11.542-11.45,25.731-20.422,41.857-25.867
	c5.233-1.767,8.041-7.44,6.275-12.672c-1.766-5.232-7.44-8.04-12.672-6.275c-15.969,5.392-30.329,13.707-42.599,24.211
	l-11.839-11.839c12.338-15.405,19.729-34.933,19.729-56.159c0-49.62-40.37-89.988-89.989-89.988S0,40.407,0,90.026
	s40.369,89.989,89.988,89.989c21.205,0,40.717-7.376,56.113-19.693l11.846,11.846c-19.525,22.835-30.965,52.336-30.965,83.882
	c0,31.96,11.689,61.238,31.009,83.796l-11.858,11.858c-15.403-12.332-34.926-19.718-56.146-19.718
	C40.369,331.986,0,372.356,0,421.976s40.369,89.988,89.988,89.988s89.989-40.369,89.989-89.988c0-21.211-7.381-40.728-19.703-56.127
	l11.856-11.856c22.564,19.344,51.861,31.048,83.842,31.048c31.971,0,61.258-11.697,83.819-31.028l11.891,11.891
	c-12.296,15.391-19.659,34.887-19.659,56.072c0,49.62,40.369,89.988,89.988,89.988c49.621,0,89.989-40.369,89.989-89.988
	S471.631,331.986,422.011,331.986z M468.975,141.875c-12.428,11.267-28.908,18.141-46.964,18.141
	c-18.061,0-34.545-6.878-46.974-18.15v-1.151c0-7.161,5.11-13.312,12.149-14.625l10.351-1.931
	c6.896,4.964,15.345,7.898,24.471,7.898c9.125,0,17.574-2.935,24.47-7.897l10.348,1.93c7.039,1.313,12.149,7.463,12.149,14.625
	V141.875z M400.01,90.062c0-12.13,9.868-21.998,21.998-21.998c12.13,0,21.998,9.868,21.998,21.998s-9.868,21.998-21.998,21.998
	C409.879,112.061,400.01,102.192,400.01,90.062z M422.011,20.036c38.593,0,69.991,31.397,69.991,69.99
	c0,11.772-2.935,22.867-8.09,32.613c-4.983-8.206-13.278-14.261-23.246-16.172c2.148-5.043,3.339-10.587,3.339-16.406
	c0-23.157-18.839-41.996-41.996-41.996s-41.996,18.839-41.996,41.996c0,5.818,1.191,11.362,3.339,16.405
	c-9.966,1.91-18.261,7.96-23.245,16.164c-5.153-9.744-8.085-20.835-8.085-32.604C352.02,51.434,383.418,20.036,422.011,20.036z
	 M136.952,141.875c-12.428,11.267-28.908,18.141-46.964,18.141c-18.061,0-34.545-6.878-46.974-18.15v-1.151
	c0-7.161,5.11-13.312,12.149-14.625l10.351-1.931c6.896,4.964,15.345,7.898,24.471,7.898c9.125,0,17.574-2.935,24.47-7.897
	l10.348,1.93c7.039,1.313,12.149,7.463,12.149,14.625L136.952,141.875L136.952,141.875z M67.988,90.062
	c0-12.13,9.868-21.998,21.998-21.998s21.998,9.868,21.998,21.998s-9.868,21.998-21.998,21.998S67.988,102.192,67.988,90.062z
	 M151.889,122.64c-4.983-8.206-13.278-14.261-23.246-16.172c2.148-5.043,3.339-10.587,3.339-16.406
	c0-23.157-18.839-41.996-41.996-41.996S47.989,66.905,47.989,90.062c0,5.818,1.191,11.362,3.339,16.405
	c-9.966,1.909-18.261,7.96-23.245,16.164c-5.152-9.744-8.084-20.835-8.084-32.604c0-38.593,31.397-69.99,69.99-69.99
	s69.991,31.397,69.991,69.99C159.98,101.798,157.045,112.894,151.889,122.64z M136.952,473.824
	c-12.428,11.267-28.908,18.141-46.964,18.141c-18.061,0-34.545-6.877-46.974-18.15v-1.187c0-7.161,5.11-13.312,12.149-14.624
	l10.351-1.931c6.896,4.964,15.345,7.898,24.471,7.898c9.125,0,17.574-2.935,24.47-7.897l10.348,1.93
	c7.039,1.313,12.149,7.463,12.149,14.624L136.952,473.824L136.952,473.824z M67.988,421.976c0-12.13,9.868-21.998,21.998-21.998
	s21.998,9.868,21.998,21.998s-9.868,21.998-21.998,21.998S67.988,434.106,67.988,421.976z M151.899,454.569
	c-4.981-8.215-13.281-14.276-23.256-16.188c2.148-5.043,3.339-10.587,3.339-16.406c0-23.157-18.839-41.996-41.996-41.996
	s-41.996,18.839-41.996,41.996c0,5.818,1.191,11.362,3.339,16.405c-9.973,1.911-18.272,7.968-23.255,16.18
	c-5.146-9.739-8.074-20.824-8.074-32.584c0-38.593,31.397-69.991,69.99-69.991s69.991,31.397,69.991,69.991
	C159.98,433.74,157.049,444.828,151.899,454.569z M468.975,473.824c-12.428,11.267-28.908,18.141-46.964,18.141
	c-18.061,0-34.545-6.877-46.974-18.15v-1.187c0-7.161,5.11-13.312,12.149-14.624l10.351-1.931
	c6.896,4.964,15.345,7.898,24.471,7.898c9.125,0,17.574-2.935,24.47-7.897l10.348,1.93c7.039,1.313,12.149,7.463,12.149,14.624
	V473.824z M400.01,421.976c0-12.13,9.868-21.998,21.998-21.998c12.13,0,21.998,9.868,21.998,21.998s-9.868,21.998-21.998,21.998
	C409.879,443.974,400.01,434.106,400.01,421.976z M483.921,454.569c-4.981-8.215-13.281-14.276-23.256-16.188
	c2.148-5.043,3.339-10.587,3.339-16.406c0-23.157-18.839-41.996-41.996-41.996s-41.996,18.839-41.996,41.996
	c0,5.818,1.191,11.362,3.339,16.405c-9.973,1.911-18.272,7.968-23.255,16.18c-5.147-9.739-8.075-20.824-8.075-32.584
	c0-38.593,31.397-69.991,69.99-69.991s69.991,31.397,69.991,69.991C492.002,433.74,489.071,444.828,483.921,454.569z"/>
<g>
</g>
<g>
</g>
<g>
</g>
<g>
</g>
<g>
</g>
<g>
</g>
<g>
</g>
<g>
</g>
<g>
</g>
<g>
</g>
<g>
</g>
<g>
</g>
<g>
</g>
<g>
</g>
<g>
</g>
</svg>
